---------
日志内容：Application结束：2018/9/5 9:11:07
发生时间：2018/9/5 9:11:07
---------
日志内容：Application结束：2018/9/5 9:27:47
发生时间：2018/9/5 9:27:47
---------
日志内容：Application结束：2018/9/5 9:49:17
发生时间：2018/9/5 9:49:17
---------
日志内容：Application结束：2018/9/5 9:49:45
发生时间：2018/9/5 9:49:45
---------
日志内容：Application结束：2018/9/5 9:56:29
发生时间：2018/9/5 9:56:29
---------
日志内容：Application结束：2018/9/5 9:59:27
发生时间：2018/9/5 9:59:27
---------
日志内容：Application结束：2018/9/5 10:00:29
发生时间：2018/9/5 10:00:29
---------
日志内容：Application结束：2018/9/5 10:01:27
发生时间：2018/9/5 10:01:27
---------
日志内容：Application结束：2018/9/5 10:25:26
发生时间：2018/9/5 10:25:26
---------
日志内容：Application结束：2018/9/5 10:46:46
发生时间：2018/9/5 10:46:46
---------
日志内容：Application结束：2018/9/5 11:47:07
发生时间：2018/9/5 11:47:07
---------
日志内容：Application结束：2018/9/5 11:49:37
发生时间：2018/9/5 11:49:37
---------
日志内容：Application结束：2018/9/5 12:10:27
发生时间：2018/9/5 12:10:27
---------
日志内容：Application结束：2018/9/5 13:44:14
发生时间：2018/9/5 13:44:14
---------
日志内容：Application结束：2018/9/5 13:49:52
发生时间：2018/9/5 13:49:52
---------
日志内容：Application结束：2018/9/5 13:54:27
发生时间：2018/9/5 13:54:27
---------
日志内容：Application结束：2018/9/5 14:15:11
发生时间：2018/9/5 14:15:11
---------
日志内容：Application结束：2018/9/5 15:01:20
发生时间：2018/9/5 15:01:20
---------
日志内容：Application结束：2018/9/5 15:05:14
发生时间：2018/9/5 15:05:14
---------
日志内容：Application结束：2018/9/5 15:06:24
发生时间：2018/9/5 15:06:24
---------
日志内容：Application结束：2018/9/5 15:08:10
发生时间：2018/9/5 15:08:10
---------
日志内容：Application结束：2018/9/5 15:16:37
发生时间：2018/9/5 15:16:37
---------
日志内容：Application结束：2018/9/5 15:27:21
发生时间：2018/9/5 15:27:21
---------
日志内容：Application结束：2018/9/5 16:17:22
发生时间：2018/9/5 16:17:22
---------
日志内容：Application结束：2018/9/5 16:24:51
发生时间：2018/9/5 16:24:51
---------
日志内容：Application结束：2018/9/5 16:48:16
发生时间：2018/9/5 16:48:16
---------
日志内容：Application结束：2018/9/5 16:51:46
发生时间：2018/9/5 16:51:46
---------
日志内容：Application结束：2018/9/5 16:56:09
发生时间：2018/9/5 16:56:09
---------
日志内容：Application结束：2018/9/5 16:57:59
发生时间：2018/9/5 16:57:59
---------
日志内容：Application结束：2018/9/5 17:20:18
发生时间：2018/9/5 17:20:18
---------
日志内容：Application结束：2018/9/5 17:37:00
发生时间：2018/9/5 17:37:00
---------
日志内容：Application结束：2018/9/5 17:53:35
发生时间：2018/9/5 17:53:35
---------
日志内容：Application结束：2018/9/5 18:14:11
发生时间：2018/9/5 18:14:11
---------
日志内容：Application结束：2018/9/5 18:28:18
发生时间：2018/9/5 18:28:18
---------
日志内容：Application结束：2018/9/5 18:30:50
发生时间：2018/9/5 18:30:50
---------
日志内容：Application结束：2018/9/5 18:33:05
发生时间：2018/9/5 18:33:05
---------
日志内容：Application结束：2018/9/5 18:42:26
发生时间：2018/9/5 18:42:26
---------
日志内容：Application结束：2018/9/5 19:03:29
发生时间：2018/9/5 19:03:29
