---------
日志内容：Application结束：2018/9/27 9:48:24
发生时间：2018/9/27 9:48:24
---------
日志内容：Application结束：2018/9/27 10:04:39
发生时间：2018/9/27 10:04:39
---------
日志内容：Application结束：2018/9/27 10:16:22
发生时间：2018/9/27 10:16:22
---------
日志内容：Application结束：2018/9/27 10:52:17
发生时间：2018/9/27 10:52:17
---------
日志内容：Application结束：2018/9/27 10:54:15
发生时间：2018/9/27 10:54:15
---------
日志内容：Application结束：2018/9/27 11:13:42
发生时间：2018/9/27 11:13:42
---------
日志内容：Application结束：2018/9/27 14:04:44
发生时间：2018/9/27 14:04:44
---------
日志内容：Application结束：2018/9/27 14:11:52
发生时间：2018/9/27 14:11:52
---------
日志内容：Application结束：2018/9/27 14:34:10
发生时间：2018/9/27 14:34:10
---------
日志内容：Application结束：2018/9/27 15:01:11
发生时间：2018/9/27 15:01:11
---------
日志内容：Application结束：2018/9/27 15:19:23
发生时间：2018/9/27 15:19:23
---------
日志内容：Application结束：2018/9/27 15:48:49
发生时间：2018/9/27 15:48:49
---------
日志内容：Application结束：2018/9/27 16:35:31
发生时间：2018/9/27 16:35:31
---------
日志内容：Application结束：2018/9/27 16:37:30
发生时间：2018/9/27 16:37:30
---------
日志内容：Application结束：2018/9/27 16:56:50
发生时间：2018/9/27 16:56:50
---------
日志内容：Application结束：2018/9/27 16:58:10
发生时间：2018/9/27 16:58:10
---------
日志内容：Application结束：2018/9/27 17:09:51
发生时间：2018/9/27 17:09:51
---------
日志内容：Application结束：2018/9/27 17:17:07
发生时间：2018/9/27 17:17:07
---------
日志内容：Application结束：2018/9/27 19:40:30
发生时间：2018/9/27 19:40:30
---------
日志内容：Application结束：2018/9/27 20:07:11
发生时间：2018/9/27 20:07:11
