---------
日志内容：Application结束：2018/9/30 8:52:31
发生时间：2018/9/30 8:52:31
---------
日志内容：Application结束：2018/9/30 9:42:35
发生时间：2018/9/30 9:42:35
---------
日志内容：Application结束：2018/9/30 10:12:12
发生时间：2018/9/30 10:12:12
---------
日志内容：Application结束：2018/9/30 10:47:04
发生时间：2018/9/30 10:47:04
---------
日志内容：Application结束：2018/9/30 11:00:54
发生时间：2018/9/30 11:00:54
---------
日志内容：Application结束：2018/9/30 11:13:23
发生时间：2018/9/30 11:13:23
---------
日志内容：Application结束：2018/9/30 11:32:56
发生时间：2018/9/30 11:32:56
---------
日志内容：Application结束：2018/9/30 11:40:09
发生时间：2018/9/30 11:40:09
---------
日志内容：Application结束：2018/9/30 11:41:37
发生时间：2018/9/30 11:41:37
---------
日志内容：Application结束：2018/9/30 11:43:12
发生时间：2018/9/30 11:43:12
---------
日志内容：Application结束：2018/9/30 11:49:27
发生时间：2018/9/30 11:49:27
---------
日志内容：Application结束：2018/9/30 11:58:02
发生时间：2018/9/30 11:58:02
---------
日志内容：Application结束：2018/9/30 12:18:19
发生时间：2018/9/30 12:18:19
---------
日志内容：Application结束：2018/9/30 14:26:34
发生时间：2018/9/30 14:26:34
---------
日志内容：Application结束：2018/9/30 15:14:13
发生时间：2018/9/30 15:14:13
---------
日志内容：Application结束：2018/9/30 15:22:32
发生时间：2018/9/30 15:22:32
---------
日志内容：Application结束：2018/9/30 15:33:39
发生时间：2018/9/30 15:33:39
---------
日志内容：Application结束：2018/9/30 16:53:21
发生时间：2018/9/30 16:53:21
