---------
日志内容：Application结束：2018/9/6 8:56:28
发生时间：2018/9/6 8:56:28
---------
日志内容：Application结束：2018/9/6 9:01:06
发生时间：2018/9/6 9:01:06
---------
日志内容：Application结束：2018/9/6 9:02:00
发生时间：2018/9/6 9:02:00
---------
日志内容：Application结束：2018/9/6 9:05:09
发生时间：2018/9/6 9:05:09
---------
日志内容：Application结束：2018/9/6 9:08:06
发生时间：2018/9/6 9:08:06
---------
日志内容：Application结束：2018/9/6 9:54:12
发生时间：2018/9/6 9:54:12
---------
日志内容：Application结束：2018/9/6 10:30:33
发生时间：2018/9/6 10:30:33
---------
日志内容：Application结束：2018/9/6 10:52:26
发生时间：2018/9/6 10:52:26
---------
日志内容：Application结束：2018/9/6 12:00:24
发生时间：2018/9/6 12:00:24
---------
日志内容：Application结束：2018/9/6 12:06:32
发生时间：2018/9/6 12:06:32
---------
日志内容：Application结束：2018/9/6 13:36:08
发生时间：2018/9/6 13:36:08
---------
日志内容：Application结束：2018/9/6 13:41:30
发生时间：2018/9/6 13:41:30
---------
日志内容：Application结束：2018/9/6 13:45:23
发生时间：2018/9/6 13:45:23
---------
日志内容：Application结束：2018/9/6 14:09:38
发生时间：2018/9/6 14:09:38
---------
日志内容：Application结束：2018/9/6 14:28:07
发生时间：2018/9/6 14:28:07
---------
日志内容：Application结束：2018/9/6 14:29:24
发生时间：2018/9/6 14:29:24
---------
日志内容：Application结束：2018/9/6 14:43:06
发生时间：2018/9/6 14:43:06
---------
日志内容：Application结束：2018/9/6 14:59:22
发生时间：2018/9/6 14:59:22
---------
日志内容：Application结束：2018/9/6 15:10:02
发生时间：2018/9/6 15:10:02
---------
日志内容：Application结束：2018/9/6 15:31:55
发生时间：2018/9/6 15:31:55
---------
日志内容：Application结束：2018/9/6 15:48:10
发生时间：2018/9/6 15:48:10
---------
日志内容：Application结束：2018/9/6 16:09:10
发生时间：2018/9/6 16:09:10
---------
日志内容：Application结束：2018/9/6 16:24:06
发生时间：2018/9/6 16:24:06
---------
日志内容：Application结束：2018/9/6 16:33:33
发生时间：2018/9/6 16:33:33
---------
日志内容：Application结束：2018/9/6 16:39:46
发生时间：2018/9/6 16:39:46
---------
日志内容：Application结束：2018/9/6 16:40:44
发生时间：2018/9/6 16:40:44
---------
日志内容：Application结束：2018/9/6 16:57:43
发生时间：2018/9/6 16:57:43
---------
日志内容：Application结束：2018/9/6 17:01:59
发生时间：2018/9/6 17:01:59
---------
日志内容：Application结束：2018/9/6 17:05:49
发生时间：2018/9/6 17:05:49
---------
日志内容：Application结束：2018/9/6 17:08:42
发生时间：2018/9/6 17:08:42
---------
日志内容：Application结束：2018/9/6 17:26:45
发生时间：2018/9/6 17:26:45
---------
日志内容：Application结束：2018/9/6 17:48:53
发生时间：2018/9/6 17:48:53
---------
日志内容：Application结束：2018/9/6 17:54:12
发生时间：2018/9/6 17:54:12
---------
日志内容：Application结束：2018/9/6 18:01:21
发生时间：2018/9/6 18:01:21
---------
日志内容：Application结束：2018/9/6 18:08:17
发生时间：2018/9/6 18:08:17
---------
日志内容：Application结束：2018/9/6 18:38:36
发生时间：2018/9/6 18:38:36
---------
日志内容：Application结束：2018/9/6 18:46:07
发生时间：2018/9/6 18:46:07
---------
日志内容：Application结束：2018/9/6 19:06:36
发生时间：2018/9/6 19:06:36
