---------
日志内容：Application结束：2018/11/29 11:04:52
发生时间：2018/11/29 11:04:53
---------
日志内容：Application结束：2018/11/29 11:21:08
发生时间：2018/11/29 11:21:08
---------
日志内容：Application结束：2018/11/29 11:23:09
发生时间：2018/11/29 11:23:09
---------
日志内容：Application结束：2018/11/29 11:33:21
发生时间：2018/11/29 11:33:21
---------
日志内容：Application结束：2018/11/29 12:19:24
发生时间：2018/11/29 12:19:24
---------
日志内容：Application结束：2018/11/29 13:59:06
发生时间：2018/11/29 13:59:06
---------
日志内容：Application结束：2018/11/29 14:02:51
发生时间：2018/11/29 14:02:51
---------
日志内容：Application结束：2018/11/29 14:12:57
发生时间：2018/11/29 14:12:57
---------
日志内容：Application结束：2018/11/29 14:14:07
发生时间：2018/11/29 14:14:07
---------
日志内容：Application结束：2018/11/29 14:33:57
发生时间：2018/11/29 14:33:57
---------
日志内容：Application结束：2018/11/29 14:39:01
发生时间：2018/11/29 14:39:01
---------
日志内容：Application结束：2018/11/29 14:41:34
发生时间：2018/11/29 14:41:34
---------
日志内容：Application结束：2018/11/29 15:04:10
发生时间：2018/11/29 15:04:10
---------
日志内容：Application结束：2018/11/29 15:51:00
发生时间：2018/11/29 15:51:00
---------
日志内容：Application结束：2018/11/29 16:40:18
发生时间：2018/11/29 16:40:18
---------
日志内容：Application结束：2018/11/29 16:43:47
发生时间：2018/11/29 16:43:47
---------
日志内容：Application结束：2018/11/29 17:10:59
发生时间：2018/11/29 17:10:59
---------
日志内容：Application结束：2018/11/29 17:35:43
发生时间：2018/11/29 17:35:43
---------
日志内容：Application结束：2018/11/29 17:37:37
发生时间：2018/11/29 17:37:37
---------
日志内容：Application结束：2018/11/29 18:00:44
发生时间：2018/11/29 18:00:44
