---------
日志内容：Studio：报价(Service 110) ,请求数据(Req) :<?xml version='1.0' encoding='ISO-8859-1' ?>
<!DOCTYPE peticion SYSTEM 'http://xml.hotelresb2b.com/xml/dtd/pet_disponibilidad_110.dtd'><peticion><tipo>110</tipo><nombre></nombre>
<agencia></agencia><parametros><hotel>307194#</hotel><pais>TH</pais><provincia>THHKT</provincia><poblacion></poblacion><categoria>0</categoria>
<radio>9</radio><fechaentrada>12/26/2018</fechaentrada><fechasalida>12/27/2018</fechasalida><marca></marca><afiliacion>RS</afiliacion>
<usuario>E33137</usuario><numhab1>2</numhab1><paxes1>1-0</paxes1><edades1>0</edades1><numhab2>0</numhab2><paxes2>0</paxes2><edades2>0</edades2>
<numhab3>0</numhab3><paxes3>0</paxes3><edades3>0</edades3><idioma>2</idioma><duplicidad>1</duplicidad><comprimido>2</comprimido><informacion_hotel>0</informacion_hotel></parametros></peticion> , 返回数据(Resp) ：<?xml version="1.0" encoding="ISO-8859-1"?>
<!DOCTYPE respuesta SYSTEM "http://xml.hotelresb2b.com/xml/dtd/res_disponibilidad_110.dtd">
<respuesta>
	<tipo>110</tipo>
	<nombre></nombre>
	<agencia>GUANGZHOU XIWAN INT.TRAVEL AGENCY XML @</agencia>
	<param>
		<hotls num="1">
			<hot>
				<cod>307194</cod>
				<afi>RS</afi>
				<nom>THE SENSES RESORT</nom>
				<pro>THHKT</pro>
				<prn>PHUKET</prn>
				<pob>PATONG BEACH</pob>
				<cat>4</cat>
				<fen>20181226</fen>
				<fsa>20181227</fsa>
				<pdr>N</pdr>
				<cal>0</cal>
				<mar>EI#</mar>
				<res>
					<pax cod="1-0">
						<hab cod="1X" desc="Single Deluxe">
							<reg cod="BB" prr="283.86" div="DO" esr="OK" nr="1">
								<lin>1X#2#VR#283.86#0#BB#OK#20181226#20181227#DO#1-0:0#98045#55#201811151127#307194#</lin>
							</reg>
						</hab>
					</pax>
				</res>
				<pns>N</pns>
				<end>0</end>
				<enh>12</enh>
				<cat2></cat2>
				<tipo_establecimiento>Resort</tipo_establecimiento>
			</hot>
		</hotls>
		<id>be275222-e031-48d7-8906-c4884571bf90</id>
	</param>
</respuesta> ,RateplanId:, Time:2018/11/15 18:27:54 
发生时间：2018/11/15 18:27:54
---------
日志内容：Studio：报价(Service 110) ,请求数据(Req) :<?xml version='1.0' encoding='ISO-8859-1' ?>
<!DOCTYPE peticion SYSTEM 'http://xml.hotelresb2b.com/xml/dtd/pet_disponibilidad_110.dtd'><peticion><tipo>110</tipo><nombre></nombre>
<agencia></agencia><parametros><hotel>307194#</hotel><pais>TH</pais><provincia>THHKT</provincia><poblacion></poblacion><categoria>0</categoria>
<radio>9</radio><fechaentrada>12/26/2018</fechaentrada><fechasalida>12/27/2018</fechasalida><marca></marca><afiliacion>RS</afiliacion>
<usuario>E33137</usuario><numhab1>2</numhab1><paxes1>1-0</paxes1><edades1>0</edades1><numhab2>0</numhab2><paxes2>0</paxes2><edades2>0</edades2>
<numhab3>0</numhab3><paxes3>0</paxes3><edades3>0</edades3><idioma>2</idioma><duplicidad>1</duplicidad><comprimido>2</comprimido><informacion_hotel>0</informacion_hotel></parametros></peticion> , 返回数据(Resp) ：<?xml version="1.0" encoding="ISO-8859-1"?>
<!DOCTYPE respuesta SYSTEM "http://xml.hotelresb2b.com/xml/dtd/res_disponibilidad_110.dtd">
<respuesta>
	<tipo>110</tipo>
	<nombre></nombre>
	<agencia>GUANGZHOU XIWAN INT.TRAVEL AGENCY XML @</agencia>
	<param>
		<hotls num="1">
			<hot>
				<cod>307194</cod>
				<afi>RS</afi>
				<nom>THE SENSES RESORT</nom>
				<pro>THHKT</pro>
				<prn>PHUKET</prn>
				<pob>PATONG BEACH</pob>
				<cat>4</cat>
				<fen>20181226</fen>
				<fsa>20181227</fsa>
				<pdr>N</pdr>
				<cal>0</cal>
				<mar>EI#</mar>
				<res>
					<pax cod="1-0">
						<hab cod="1X" desc="Single Deluxe">
							<reg cod="BB" prr="283.86" div="DO" esr="OK" nr="1">
								<lin>1X#2#VR#283.86#0#BB#OK#20181226#20181227#DO#1-0:0#98045#55#201811151128#307194#</lin>
							</reg>
						</hab>
					</pax>
				</res>
				<pns>N</pns>
				<end>0</end>
				<enh>12</enh>
				<cat2></cat2>
				<tipo_establecimiento>Resort</tipo_establecimiento>
			</hot>
		</hotls>
		<id>b25ebf7f-2bea-4168-b718-866fb6ef7f54</id>
	</param>
</respuesta> ,RateplanId:0a8d327861aab471cd1e5e1361671733_307194_1x_bb, Time:2018/11/15 18:28:50 
发生时间：2018/11/15 18:28:50
---------
日志内容：Studio：报价(Service 110) ,请求数据(Req) :<?xml version='1.0' encoding='ISO-8859-1' ?>
<!DOCTYPE peticion SYSTEM 'http://xml.hotelresb2b.com/xml/dtd/pet_disponibilidad_110.dtd'><peticion><tipo>110</tipo><nombre></nombre>
<agencia></agencia><parametros><hotel>307194#</hotel><pais>TH</pais><provincia>THHKT</provincia><poblacion></poblacion><categoria>0</categoria>
<radio>9</radio><fechaentrada>11/21/2018</fechaentrada><fechasalida>11/26/2018</fechasalida><marca></marca><afiliacion>RS</afiliacion>
<usuario>E33137</usuario><numhab1>1</numhab1><paxes1>2-0</paxes1><edades1>0</edades1><numhab2>0</numhab2><paxes2>0</paxes2><edades2>0</edades2>
<numhab3>0</numhab3><paxes3>0</paxes3><edades3>0</edades3><idioma>2</idioma><duplicidad>1</duplicidad><comprimido>2</comprimido><informacion_hotel>0</informacion_hotel></parametros></peticion> , 返回数据(Resp) ：<?xml version="1.0" encoding="ISO-8859-1"?>
<!DOCTYPE respuesta SYSTEM "http://xml.hotelresb2b.com/xml/dtd/res_disponibilidad_110.dtd">
<respuesta>
	<tipo>110</tipo>
	<nombre></nombre>
	<agencia>GUANGZHOU XIWAN INT.TRAVEL AGENCY XML @</agencia>
	<param>
		<hotls num="1">
			<hot>
				<cod>307194</cod>
				<afi>RS</afi>
				<nom>THE SENSES RESORT</nom>
				<pro>THHKT</pro>
				<prn>PHUKET</prn>
				<pob>PATONG BEACH</pob>
				<cat>4</cat>
				<fen>20181121</fen>
				<fsa>20181126</fsa>
				<pdr>N</pdr>
				<cal>0</cal>
				<mar>EI#</mar>
				<res>
					<pax cod="2-0">
						<hab cod="-5" desc="Double, corner">
							<reg cod="BB" prr="491.25" div="DO" esr="OK" nr="1">
								<lin>-5#1#VR#98.25#0#BB#OK#20181121#20181122#DO#2-0:0#98045#55#201811151138#307194#</lin>
								<lin>-5#1#VR#98.25#0#BB#OK#20181122#20181123#DO#2-0:0#98045#55#201811151138#307194#</lin>
								<lin>-5#1#VR#98.25#0#BB#OK#20181123#20181124#DO#2-0:0#98045#55#201811151138#307194#</lin>
								<lin>-5#1#VR#98.25#0#BB#OK#20181124#20181125#DO#2-0:0#98045#55#201811151138#307194#</lin>
								<lin>-5#1#VR#98.25#0#BB#OK#20181125#20181126#DO#2-0:0#98045#55#201811151138#307194#</lin>
							</reg>
						</hab>
						<hab cod="07" desc="Double Deluxe sea view">
							<reg cod="BB" prr="401.78" div="DO" esr="OK" nr="1">
								<lin>07#1#VR#87.34#0#BB#OK#20181121#20181122#DO#2-0:0#98045#55#201811151138#307194#</lin>
								<lin>07#1#VR#78.61#0#BB#OK#20181122#20181123#DO#2-0:0#98045#55#201811151138#307194#</lin>
								<lin>07#1#VR#78.61#0#BB#OK#20181123#20181124#DO#2-0:0#98045#55#201811151138#307194#</lin>
								<lin>07#1#VR#78.61#0#BB#OK#20181124#20181125#DO#2-0:0#98045#55#201811151138#307194#</lin>
								<lin>07#1#VR#78.61#0#BB#OK#20181125#20181126#DO#2-0:0#98045#55#201811151138#307194#</lin>
							</reg>
						</hab>
						<hab cod="K2" desc="Double Deluxe, pool view">
							<reg cod="BB" prr="731.46" div="DO" esr="OK" nr="1">
								<lin>K2#1#VR#141.93#0#BB#OK#20181121#20181122#DO#2-0:0#98045#55#201811151138#307194#</lin>
								<lin>K2#1#VR#131.01#0#BB#OK#20181122#20181123#DO#2-0:0#98045#55#201811151138#307194#</lin>
								<lin>K2#1#VR#152.84#0#BB#OK#20181123#20181124#DO#2-0:0#98045#55#201811151138#307194#</lin>
								<lin>K2#1#VR#152.84#0#BB#OK#20181124#20181125#DO#2-0:0#98045#55#201811151138#307194#</lin>
								<lin>K2#1#VR#152.84#0#BB#OK#20181125#20181126#DO#2-0:0#98045#55#201811151138#307194#</lin>
							</reg>
						</hab>
						<hab cod="SU" desc="Suite">
							<reg cod="BB" prr="600.50" div="DO" esr="OK" nr="1">
								<lin>SU#1#VR#120.10#0#BB#OK#20181121#20181122#DO#2-0:0#98045#55#201811151138#307194#</lin>
								<lin>SU#1#VR#120.10#0#BB#OK#20181122#20181123#DO#2-0:0#98045#55#201811151138#307194#</lin>
								<lin>SU#1#VR#120.10#0#BB#OK#20181123#20181124#DO#2-0:0#98045#55#201811151138#307194#</lin>
								<lin>SU#1#VR#120.10#0#BB#OK#20181124#20181125#DO#2-0:0#98045#55#201811151138#307194#</lin>
								<lin>SU#1#VR#120.10#0#BB#OK#20181125#20181126#DO#2-0:0#98045#55#201811151138#307194#</lin>
							</reg>
						</hab>
					</pax>
				</res>
				<pns>N</pns>
				<end>0</end>
				<enh>12</enh>
				<cat2></cat2>
				<tipo_establecimiento>Resort</tipo_establecimiento>
			</hot>
		</hotls>
		<id>5b8db0a7-3536-4d0d-b261-de334b0e3692</id>
	</param>
</respuesta> ,RateplanId:1a35c90866fa40d82ffced3118a42bf8, Time:2018/11/15 18:38:22 
发生时间：2018/11/15 18:38:22
---------
日志内容：Studio：报价(Service 110) ,请求数据(Req) :<?xml version='1.0' encoding='ISO-8859-1' ?>
<!DOCTYPE peticion SYSTEM 'http://xml.hotelresb2b.com/xml/dtd/pet_disponibilidad_110.dtd'><peticion><tipo>110</tipo><nombre></nombre>
<agencia></agencia><parametros><hotel>307194#</hotel><pais>TH</pais><provincia>THHKT</provincia><poblacion></poblacion><categoria>0</categoria>
<radio>9</radio><fechaentrada>11/21/2018</fechaentrada><fechasalida>11/26/2018</fechasalida><marca></marca><afiliacion>RS</afiliacion>
<usuario>E33137</usuario><numhab1>1</numhab1><paxes1>2-0</paxes1><edades1>0</edades1><numhab2>0</numhab2><paxes2>0</paxes2><edades2>0</edades2>
<numhab3>0</numhab3><paxes3>0</paxes3><edades3>0</edades3><idioma>2</idioma><duplicidad>1</duplicidad><comprimido>2</comprimido><informacion_hotel>0</informacion_hotel></parametros></peticion> , 返回数据(Resp) ：<?xml version="1.0" encoding="ISO-8859-1"?>
<!DOCTYPE respuesta SYSTEM "http://xml.hotelresb2b.com/xml/dtd/res_disponibilidad_110.dtd">
<respuesta>
	<tipo>110</tipo>
	<nombre></nombre>
	<agencia>GUANGZHOU XIWAN INT.TRAVEL AGENCY XML @</agencia>
	<param>
		<hotls num="1">
			<hot>
				<cod>307194</cod>
				<afi>RS</afi>
				<nom>THE SENSES RESORT</nom>
				<pro>THHKT</pro>
				<prn>PHUKET</prn>
				<pob>PATONG BEACH</pob>
				<cat>4</cat>
				<fen>20181121</fen>
				<fsa>20181126</fsa>
				<pdr>N</pdr>
				<cal>0</cal>
				<mar>EI#</mar>
				<res>
					<pax cod="2-0">
						<hab cod="-5" desc="Double, corner">
							<reg cod="BB" prr="491.25" div="DO" esr="OK" nr="1">
								<lin>-5#1#VR#98.25#0#BB#OK#20181121#20181122#DO#2-0:0#98045#55#201811151140#307194#</lin>
								<lin>-5#1#VR#98.25#0#BB#OK#20181122#20181123#DO#2-0:0#98045#55#201811151140#307194#</lin>
								<lin>-5#1#VR#98.25#0#BB#OK#20181123#20181124#DO#2-0:0#98045#55#201811151140#307194#</lin>
								<lin>-5#1#VR#98.25#0#BB#OK#20181124#20181125#DO#2-0:0#98045#55#201811151140#307194#</lin>
								<lin>-5#1#VR#98.25#0#BB#OK#20181125#20181126#DO#2-0:0#98045#55#201811151140#307194#</lin>
							</reg>
						</hab>
						<hab cod="07" desc="Double Deluxe sea view">
							<reg cod="BB" prr="401.78" div="DO" esr="OK" nr="1">
								<lin>07#1#VR#87.34#0#BB#OK#20181121#20181122#DO#2-0:0#98045#55#201811151140#307194#</lin>
								<lin>07#1#VR#78.61#0#BB#OK#20181122#20181123#DO#2-0:0#98045#55#201811151140#307194#</lin>
								<lin>07#1#VR#78.61#0#BB#OK#20181123#20181124#DO#2-0:0#98045#55#201811151140#307194#</lin>
								<lin>07#1#VR#78.61#0#BB#OK#20181124#20181125#DO#2-0:0#98045#55#201811151140#307194#</lin>
								<lin>07#1#VR#78.61#0#BB#OK#20181125#20181126#DO#2-0:0#98045#55#201811151140#307194#</lin>
							</reg>
						</hab>
						<hab cod="K2" desc="Double Deluxe, pool view">
							<reg cod="BB" prr="731.46" div="DO" esr="OK" nr="1">
								<lin>K2#1#VR#141.93#0#BB#OK#20181121#20181122#DO#2-0:0#98045#55#201811151140#307194#</lin>
								<lin>K2#1#VR#131.01#0#BB#OK#20181122#20181123#DO#2-0:0#98045#55#201811151140#307194#</lin>
								<lin>K2#1#VR#152.84#0#BB#OK#20181123#20181124#DO#2-0:0#98045#55#201811151140#307194#</lin>
								<lin>K2#1#VR#152.84#0#BB#OK#20181124#20181125#DO#2-0:0#98045#55#201811151140#307194#</lin>
								<lin>K2#1#VR#152.84#0#BB#OK#20181125#20181126#DO#2-0:0#98045#55#201811151140#307194#</lin>
							</reg>
						</hab>
						<hab cod="SU" desc="Suite">
							<reg cod="BB" prr="600.50" div="DO" esr="OK" nr="1">
								<lin>SU#1#VR#120.10#0#BB#OK#20181121#20181122#DO#2-0:0#98045#55#201811151140#307194#</lin>
								<lin>SU#1#VR#120.10#0#BB#OK#20181122#20181123#DO#2-0:0#98045#55#201811151140#307194#</lin>
								<lin>SU#1#VR#120.10#0#BB#OK#20181123#20181124#DO#2-0:0#98045#55#201811151140#307194#</lin>
								<lin>SU#1#VR#120.10#0#BB#OK#20181124#20181125#DO#2-0:0#98045#55#201811151140#307194#</lin>
								<lin>SU#1#VR#120.10#0#BB#OK#20181125#20181126#DO#2-0:0#98045#55#201811151140#307194#</lin>
							</reg>
						</hab>
					</pax>
				</res>
				<pns>N</pns>
				<end>0</end>
				<enh>12</enh>
				<cat2></cat2>
				<tipo_establecimiento>Resort</tipo_establecimiento>
			</hot>
		</hotls>
		<id>588685af-9f62-496a-8fd1-a0c8a473211e</id>
	</param>
</respuesta> ,RateplanId:1a35c90866fa40d82ffced3118a42bf8, Time:2018/11/15 18:41:01 
发生时间：2018/11/15 18:41:01
---------
日志内容：Studio：报价(Service 110) ,请求数据(Req) :<?xml version='1.0' encoding='ISO-8859-1' ?>
<!DOCTYPE peticion SYSTEM 'http://xml.hotelresb2b.com/xml/dtd/pet_disponibilidad_110.dtd'><peticion><tipo>110</tipo><nombre></nombre>
<agencia></agencia><parametros><hotel>307194#</hotel><pais>TH</pais><provincia>THHKT</provincia><poblacion></poblacion><categoria>0</categoria>
<radio>9</radio><fechaentrada>11/21/2018</fechaentrada><fechasalida>11/26/2018</fechasalida><marca></marca><afiliacion>RS</afiliacion>
<usuario>E33137</usuario><numhab1>1</numhab1><paxes1>2-0</paxes1><edades1>0</edades1><numhab2>0</numhab2><paxes2>0</paxes2><edades2>0</edades2>
<numhab3>0</numhab3><paxes3>0</paxes3><edades3>0</edades3><idioma>2</idioma><duplicidad>1</duplicidad><comprimido>2</comprimido><informacion_hotel>0</informacion_hotel></parametros></peticion> , 返回数据(Resp) ：<?xml version="1.0" encoding="ISO-8859-1"?>
<!DOCTYPE respuesta SYSTEM "http://xml.hotelresb2b.com/xml/dtd/res_disponibilidad_110.dtd">
<respuesta>
	<tipo>110</tipo>
	<nombre></nombre>
	<agencia>GUANGZHOU XIWAN INT.TRAVEL AGENCY XML @</agencia>
	<param>
		<hotls num="1">
			<hot>
				<cod>307194</cod>
				<afi>RS</afi>
				<nom>THE SENSES RESORT</nom>
				<pro>THHKT</pro>
				<prn>PHUKET</prn>
				<pob>PATONG BEACH</pob>
				<cat>4</cat>
				<fen>20181121</fen>
				<fsa>20181126</fsa>
				<pdr>N</pdr>
				<cal>0</cal>
				<mar>EI#</mar>
				<res>
					<pax cod="2-0">
						<hab cod="-5" desc="Double, corner">
							<reg cod="BB" prr="491.25" div="DO" esr="OK" nr="1">
								<lin>-5#1#VR#98.25#0#BB#OK#20181121#20181122#DO#2-0:0#98045#55#201811151142#307194#</lin>
								<lin>-5#1#VR#98.25#0#BB#OK#20181122#20181123#DO#2-0:0#98045#55#201811151142#307194#</lin>
								<lin>-5#1#VR#98.25#0#BB#OK#20181123#20181124#DO#2-0:0#98045#55#201811151142#307194#</lin>
								<lin>-5#1#VR#98.25#0#BB#OK#20181124#20181125#DO#2-0:0#98045#55#201811151142#307194#</lin>
								<lin>-5#1#VR#98.25#0#BB#OK#20181125#20181126#DO#2-0:0#98045#55#201811151142#307194#</lin>
							</reg>
						</hab>
						<hab cod="07" desc="Double Deluxe sea view">
							<reg cod="BB" prr="401.78" div="DO" esr="OK" nr="1">
								<lin>07#1#VR#87.34#0#BB#OK#20181121#20181122#DO#2-0:0#98045#55#201811151142#307194#</lin>
								<lin>07#1#VR#78.61#0#BB#OK#20181122#20181123#DO#2-0:0#98045#55#201811151142#307194#</lin>
								<lin>07#1#VR#78.61#0#BB#OK#20181123#20181124#DO#2-0:0#98045#55#201811151142#307194#</lin>
								<lin>07#1#VR#78.61#0#BB#OK#20181124#20181125#DO#2-0:0#98045#55#201811151142#307194#</lin>
								<lin>07#1#VR#78.61#0#BB#OK#20181125#20181126#DO#2-0:0#98045#55#201811151142#307194#</lin>
							</reg>
						</hab>
						<hab cod="K2" desc="Double Deluxe, pool view">
							<reg cod="BB" prr="731.46" div="DO" esr="OK" nr="1">
								<lin>K2#1#VR#141.93#0#BB#OK#20181121#20181122#DO#2-0:0#98045#55#201811151142#307194#</lin>
								<lin>K2#1#VR#131.01#0#BB#OK#20181122#20181123#DO#2-0:0#98045#55#201811151142#307194#</lin>
								<lin>K2#1#VR#152.84#0#BB#OK#20181123#20181124#DO#2-0:0#98045#55#201811151142#307194#</lin>
								<lin>K2#1#VR#152.84#0#BB#OK#20181124#20181125#DO#2-0:0#98045#55#201811151142#307194#</lin>
								<lin>K2#1#VR#152.84#0#BB#OK#20181125#20181126#DO#2-0:0#98045#55#201811151142#307194#</lin>
							</reg>
						</hab>
						<hab cod="SU" desc="Suite">
							<reg cod="BB" prr="600.50" div="DO" esr="OK" nr="1">
								<lin>SU#1#VR#120.10#0#BB#OK#20181121#20181122#DO#2-0:0#98045#55#201811151142#307194#</lin>
								<lin>SU#1#VR#120.10#0#BB#OK#20181122#20181123#DO#2-0:0#98045#55#201811151142#307194#</lin>
								<lin>SU#1#VR#120.10#0#BB#OK#20181123#20181124#DO#2-0:0#98045#55#201811151142#307194#</lin>
								<lin>SU#1#VR#120.10#0#BB#OK#20181124#20181125#DO#2-0:0#98045#55#201811151142#307194#</lin>
								<lin>SU#1#VR#120.10#0#BB#OK#20181125#20181126#DO#2-0:0#98045#55#201811151142#307194#</lin>
							</reg>
						</hab>
					</pax>
				</res>
				<pns>N</pns>
				<end>0</end>
				<enh>12</enh>
				<cat2></cat2>
				<tipo_establecimiento>Resort</tipo_establecimiento>
			</hot>
		</hotls>
		<id>c550de8d-2d59-4d2d-bf7a-2d34c35365e4</id>
	</param>
</respuesta> ,RateplanId:1a35c90866fa40d82ffced3118a42bf8, Time:2018/11/15 18:42:55 
发生时间：2018/11/15 18:42:55
---------
日志内容：Studio：报价(Service 110) ,请求数据(Req) :<?xml version='1.0' encoding='ISO-8859-1' ?>
<!DOCTYPE peticion SYSTEM 'http://xml.hotelresb2b.com/xml/dtd/pet_disponibilidad_110.dtd'><peticion><tipo>110</tipo><nombre></nombre>
<agencia></agencia><parametros><hotel>307194#</hotel><pais>TH</pais><provincia>THHKT</provincia><poblacion></poblacion><categoria>0</categoria>
<radio>9</radio><fechaentrada>11/21/2018</fechaentrada><fechasalida>11/26/2018</fechasalida><marca></marca><afiliacion>RS</afiliacion>
<usuario>E33137</usuario><numhab1>1</numhab1><paxes1>2-0</paxes1><edades1>0</edades1><numhab2>0</numhab2><paxes2>0</paxes2><edades2>0</edades2>
<numhab3>0</numhab3><paxes3>0</paxes3><edades3>0</edades3><idioma>2</idioma><duplicidad>1</duplicidad><comprimido>2</comprimido><informacion_hotel>0</informacion_hotel></parametros></peticion> , 返回数据(Resp) ：<?xml version="1.0" encoding="ISO-8859-1"?>
<!DOCTYPE respuesta SYSTEM "http://xml.hotelresb2b.com/xml/dtd/res_disponibilidad_110.dtd">
<respuesta>
	<tipo>110</tipo>
	<nombre></nombre>
	<agencia>GUANGZHOU XIWAN INT.TRAVEL AGENCY XML @</agencia>
	<param>
		<hotls num="1">
			<hot>
				<cod>307194</cod>
				<afi>RS</afi>
				<nom>THE SENSES RESORT</nom>
				<pro>THHKT</pro>
				<prn>PHUKET</prn>
				<pob>PATONG BEACH</pob>
				<cat>4</cat>
				<fen>20181121</fen>
				<fsa>20181126</fsa>
				<pdr>N</pdr>
				<cal>0</cal>
				<mar>EI#</mar>
				<res>
					<pax cod="2-0">
						<hab cod="-5" desc="Double, corner">
							<reg cod="BB" prr="491.25" div="DO" esr="OK" nr="1">
								<lin>-5#1#VR#98.25#0#BB#OK#20181121#20181122#DO#2-0:0#98045#55#201811151143#307194#</lin>
								<lin>-5#1#VR#98.25#0#BB#OK#20181122#20181123#DO#2-0:0#98045#55#201811151143#307194#</lin>
								<lin>-5#1#VR#98.25#0#BB#OK#20181123#20181124#DO#2-0:0#98045#55#201811151143#307194#</lin>
								<lin>-5#1#VR#98.25#0#BB#OK#20181124#20181125#DO#2-0:0#98045#55#201811151143#307194#</lin>
								<lin>-5#1#VR#98.25#0#BB#OK#20181125#20181126#DO#2-0:0#98045#55#201811151143#307194#</lin>
							</reg>
						</hab>
						<hab cod="07" desc="Double Deluxe sea view">
							<reg cod="BB" prr="401.78" div="DO" esr="OK" nr="1">
								<lin>07#1#VR#87.34#0#BB#OK#20181121#20181122#DO#2-0:0#98045#55#201811151143#307194#</lin>
								<lin>07#1#VR#78.61#0#BB#OK#20181122#20181123#DO#2-0:0#98045#55#201811151143#307194#</lin>
								<lin>07#1#VR#78.61#0#BB#OK#20181123#20181124#DO#2-0:0#98045#55#201811151143#307194#</lin>
								<lin>07#1#VR#78.61#0#BB#OK#20181124#20181125#DO#2-0:0#98045#55#201811151143#307194#</lin>
								<lin>07#1#VR#78.61#0#BB#OK#20181125#20181126#DO#2-0:0#98045#55#201811151143#307194#</lin>
							</reg>
						</hab>
						<hab cod="K2" desc="Double Deluxe, pool view">
							<reg cod="BB" prr="731.46" div="DO" esr="OK" nr="1">
								<lin>K2#1#VR#141.93#0#BB#OK#20181121#20181122#DO#2-0:0#98045#55#201811151143#307194#</lin>
								<lin>K2#1#VR#131.01#0#BB#OK#20181122#20181123#DO#2-0:0#98045#55#201811151143#307194#</lin>
								<lin>K2#1#VR#152.84#0#BB#OK#20181123#20181124#DO#2-0:0#98045#55#201811151143#307194#</lin>
								<lin>K2#1#VR#152.84#0#BB#OK#20181124#20181125#DO#2-0:0#98045#55#201811151143#307194#</lin>
								<lin>K2#1#VR#152.84#0#BB#OK#20181125#20181126#DO#2-0:0#98045#55#201811151143#307194#</lin>
							</reg>
						</hab>
						<hab cod="SU" desc="Suite">
							<reg cod="BB" prr="600.50" div="DO" esr="OK" nr="1">
								<lin>SU#1#VR#120.10#0#BB#OK#20181121#20181122#DO#2-0:0#98045#55#201811151143#307194#</lin>
								<lin>SU#1#VR#120.10#0#BB#OK#20181122#20181123#DO#2-0:0#98045#55#201811151143#307194#</lin>
								<lin>SU#1#VR#120.10#0#BB#OK#20181123#20181124#DO#2-0:0#98045#55#201811151143#307194#</lin>
								<lin>SU#1#VR#120.10#0#BB#OK#20181124#20181125#DO#2-0:0#98045#55#201811151143#307194#</lin>
								<lin>SU#1#VR#120.10#0#BB#OK#20181125#20181126#DO#2-0:0#98045#55#201811151143#307194#</lin>
							</reg>
						</hab>
					</pax>
				</res>
				<pns>N</pns>
				<end>0</end>
				<enh>12</enh>
				<cat2></cat2>
				<tipo_establecimiento>Resort</tipo_establecimiento>
			</hot>
		</hotls>
		<id>84d18a03-dcbe-4685-8dd2-8e7ff4012146</id>
	</param>
</respuesta> ,RateplanId:1a35c90866fa40d82ffced3118a42bf8, Time:2018/11/15 18:43:24 
发生时间：2018/11/15 18:43:24
---------
日志内容：Studio：报价(Service 110) ,请求数据(Req) :<?xml version='1.0' encoding='ISO-8859-1' ?>
<!DOCTYPE peticion SYSTEM 'http://xml.hotelresb2b.com/xml/dtd/pet_disponibilidad_110.dtd'><peticion><tipo>110</tipo><nombre></nombre>
<agencia></agencia><parametros><hotel>307194#</hotel><pais>TH</pais><provincia>THHKT</provincia><poblacion></poblacion><categoria>0</categoria>
<radio>9</radio><fechaentrada>11/21/2018</fechaentrada><fechasalida>11/26/2018</fechasalida><marca></marca><afiliacion>RS</afiliacion>
<usuario>E33137</usuario><numhab1>1</numhab1><paxes1>2-0</paxes1><edades1>0</edades1><numhab2>0</numhab2><paxes2>0</paxes2><edades2>0</edades2>
<numhab3>0</numhab3><paxes3>0</paxes3><edades3>0</edades3><idioma>2</idioma><duplicidad>1</duplicidad><comprimido>2</comprimido><informacion_hotel>0</informacion_hotel></parametros></peticion> , 返回数据(Resp) ：<?xml version="1.0" encoding="ISO-8859-1"?>
<!DOCTYPE respuesta SYSTEM "http://xml.hotelresb2b.com/xml/dtd/res_disponibilidad_110.dtd">
<respuesta>
	<tipo>110</tipo>
	<nombre></nombre>
	<agencia>GUANGZHOU XIWAN INT.TRAVEL AGENCY XML @</agencia>
	<param>
		<hotls num="1">
			<hot>
				<cod>307194</cod>
				<afi>RS</afi>
				<nom>THE SENSES RESORT</nom>
				<pro>THHKT</pro>
				<prn>PHUKET</prn>
				<pob>PATONG BEACH</pob>
				<cat>4</cat>
				<fen>20181121</fen>
				<fsa>20181126</fsa>
				<pdr>N</pdr>
				<cal>0</cal>
				<mar>EI#</mar>
				<res>
					<pax cod="2-0">
						<hab cod="-5" desc="Double, corner">
							<reg cod="BB" prr="491.25" div="DO" esr="OK" nr="1">
								<lin>-5#1#VR#98.25#0#BB#OK#20181121#20181122#DO#2-0:0#98045#55#201811151143#307194#</lin>
								<lin>-5#1#VR#98.25#0#BB#OK#20181122#20181123#DO#2-0:0#98045#55#201811151143#307194#</lin>
								<lin>-5#1#VR#98.25#0#BB#OK#20181123#20181124#DO#2-0:0#98045#55#201811151143#307194#</lin>
								<lin>-5#1#VR#98.25#0#BB#OK#20181124#20181125#DO#2-0:0#98045#55#201811151143#307194#</lin>
								<lin>-5#1#VR#98.25#0#BB#OK#20181125#20181126#DO#2-0:0#98045#55#201811151143#307194#</lin>
							</reg>
						</hab>
						<hab cod="07" desc="Double Deluxe sea view">
							<reg cod="BB" prr="401.78" div="DO" esr="OK" nr="1">
								<lin>07#1#VR#87.34#0#BB#OK#20181121#20181122#DO#2-0:0#98045#55#201811151143#307194#</lin>
								<lin>07#1#VR#78.61#0#BB#OK#20181122#20181123#DO#2-0:0#98045#55#201811151143#307194#</lin>
								<lin>07#1#VR#78.61#0#BB#OK#20181123#20181124#DO#2-0:0#98045#55#201811151143#307194#</lin>
								<lin>07#1#VR#78.61#0#BB#OK#20181124#20181125#DO#2-0:0#98045#55#201811151143#307194#</lin>
								<lin>07#1#VR#78.61#0#BB#OK#20181125#20181126#DO#2-0:0#98045#55#201811151143#307194#</lin>
							</reg>
						</hab>
						<hab cod="K2" desc="Double Deluxe, pool view">
							<reg cod="BB" prr="731.46" div="DO" esr="OK" nr="1">
								<lin>K2#1#VR#141.93#0#BB#OK#20181121#20181122#DO#2-0:0#98045#55#201811151143#307194#</lin>
								<lin>K2#1#VR#131.01#0#BB#OK#20181122#20181123#DO#2-0:0#98045#55#201811151143#307194#</lin>
								<lin>K2#1#VR#152.84#0#BB#OK#20181123#20181124#DO#2-0:0#98045#55#201811151143#307194#</lin>
								<lin>K2#1#VR#152.84#0#BB#OK#20181124#20181125#DO#2-0:0#98045#55#201811151143#307194#</lin>
								<lin>K2#1#VR#152.84#0#BB#OK#20181125#20181126#DO#2-0:0#98045#55#201811151143#307194#</lin>
							</reg>
						</hab>
						<hab cod="SU" desc="Suite">
							<reg cod="BB" prr="600.50" div="DO" esr="OK" nr="1">
								<lin>SU#1#VR#120.10#0#BB#OK#20181121#20181122#DO#2-0:0#98045#55#201811151143#307194#</lin>
								<lin>SU#1#VR#120.10#0#BB#OK#20181122#20181123#DO#2-0:0#98045#55#201811151143#307194#</lin>
								<lin>SU#1#VR#120.10#0#BB#OK#20181123#20181124#DO#2-0:0#98045#55#201811151143#307194#</lin>
								<lin>SU#1#VR#120.10#0#BB#OK#20181124#20181125#DO#2-0:0#98045#55#201811151143#307194#</lin>
								<lin>SU#1#VR#120.10#0#BB#OK#20181125#20181126#DO#2-0:0#98045#55#201811151143#307194#</lin>
							</reg>
						</hab>
					</pax>
				</res>
				<pns>N</pns>
				<end>0</end>
				<enh>12</enh>
				<cat2></cat2>
				<tipo_establecimiento>Resort</tipo_establecimiento>
			</hot>
		</hotls>
		<id>ca61c1ff-1fd9-4210-bf9c-f50f4a677682</id>
	</param>
</respuesta> ,RateplanId:1a35c90866fa40d82ffced3118a42bf8, Time:2018/11/15 18:43:51 
发生时间：2018/11/15 18:43:51
---------
日志内容：Studio：报价(Service 110) ,请求数据(Req) :<?xml version='1.0' encoding='ISO-8859-1' ?>
<!DOCTYPE peticion SYSTEM 'http://xml.hotelresb2b.com/xml/dtd/pet_disponibilidad_110.dtd'><peticion><tipo>110</tipo><nombre></nombre>
<agencia></agencia><parametros><hotel>307194#</hotel><pais>TH</pais><provincia>THHKT</provincia><poblacion></poblacion><categoria>0</categoria>
<radio>9</radio><fechaentrada>11/21/2018</fechaentrada><fechasalida>11/26/2018</fechasalida><marca></marca><afiliacion>RS</afiliacion>
<usuario>E33137</usuario><numhab1>1</numhab1><paxes1>2-0</paxes1><edades1>0</edades1><numhab2>0</numhab2><paxes2>0</paxes2><edades2>0</edades2>
<numhab3>0</numhab3><paxes3>0</paxes3><edades3>0</edades3><idioma>2</idioma><duplicidad>1</duplicidad><comprimido>2</comprimido><informacion_hotel>0</informacion_hotel></parametros></peticion> , 返回数据(Resp) ：<?xml version="1.0" encoding="ISO-8859-1"?>
<!DOCTYPE respuesta SYSTEM "http://xml.hotelresb2b.com/xml/dtd/res_disponibilidad_110.dtd">
<respuesta>
	<tipo>110</tipo>
	<nombre></nombre>
	<agencia>GUANGZHOU XIWAN INT.TRAVEL AGENCY XML @</agencia>
	<param>
		<hotls num="1">
			<hot>
				<cod>307194</cod>
				<afi>RS</afi>
				<nom>THE SENSES RESORT</nom>
				<pro>THHKT</pro>
				<prn>PHUKET</prn>
				<pob>PATONG BEACH</pob>
				<cat>4</cat>
				<fen>20181121</fen>
				<fsa>20181126</fsa>
				<pdr>N</pdr>
				<cal>0</cal>
				<mar>EI#</mar>
				<res>
					<pax cod="2-0">
						<hab cod="-5" desc="Double, corner">
							<reg cod="BB" prr="491.25" div="DO" esr="OK" nr="1">
								<lin>-5#1#VR#98.25#0#BB#OK#20181121#20181122#DO#2-0:0#98045#55#201811151145#307194#</lin>
								<lin>-5#1#VR#98.25#0#BB#OK#20181122#20181123#DO#2-0:0#98045#55#201811151145#307194#</lin>
								<lin>-5#1#VR#98.25#0#BB#OK#20181123#20181124#DO#2-0:0#98045#55#201811151145#307194#</lin>
								<lin>-5#1#VR#98.25#0#BB#OK#20181124#20181125#DO#2-0:0#98045#55#201811151145#307194#</lin>
								<lin>-5#1#VR#98.25#0#BB#OK#20181125#20181126#DO#2-0:0#98045#55#201811151145#307194#</lin>
							</reg>
						</hab>
						<hab cod="07" desc="Double Deluxe sea view">
							<reg cod="BB" prr="401.78" div="DO" esr="OK" nr="1">
								<lin>07#1#VR#87.34#0#BB#OK#20181121#20181122#DO#2-0:0#98045#55#201811151145#307194#</lin>
								<lin>07#1#VR#78.61#0#BB#OK#20181122#20181123#DO#2-0:0#98045#55#201811151145#307194#</lin>
								<lin>07#1#VR#78.61#0#BB#OK#20181123#20181124#DO#2-0:0#98045#55#201811151145#307194#</lin>
								<lin>07#1#VR#78.61#0#BB#OK#20181124#20181125#DO#2-0:0#98045#55#201811151145#307194#</lin>
								<lin>07#1#VR#78.61#0#BB#OK#20181125#20181126#DO#2-0:0#98045#55#201811151145#307194#</lin>
							</reg>
						</hab>
						<hab cod="K2" desc="Double Deluxe, pool view">
							<reg cod="BB" prr="731.46" div="DO" esr="OK" nr="1">
								<lin>K2#1#VR#141.93#0#BB#OK#20181121#20181122#DO#2-0:0#98045#55#201811151145#307194#</lin>
								<lin>K2#1#VR#131.01#0#BB#OK#20181122#20181123#DO#2-0:0#98045#55#201811151145#307194#</lin>
								<lin>K2#1#VR#152.84#0#BB#OK#20181123#20181124#DO#2-0:0#98045#55#201811151145#307194#</lin>
								<lin>K2#1#VR#152.84#0#BB#OK#20181124#20181125#DO#2-0:0#98045#55#201811151145#307194#</lin>
								<lin>K2#1#VR#152.84#0#BB#OK#20181125#20181126#DO#2-0:0#98045#55#201811151145#307194#</lin>
							</reg>
						</hab>
						<hab cod="SU" desc="Suite">
							<reg cod="BB" prr="600.50" div="DO" esr="OK" nr="1">
								<lin>SU#1#VR#120.10#0#BB#OK#20181121#20181122#DO#2-0:0#98045#55#201811151145#307194#</lin>
								<lin>SU#1#VR#120.10#0#BB#OK#20181122#20181123#DO#2-0:0#98045#55#201811151145#307194#</lin>
								<lin>SU#1#VR#120.10#0#BB#OK#20181123#20181124#DO#2-0:0#98045#55#201811151145#307194#</lin>
								<lin>SU#1#VR#120.10#0#BB#OK#20181124#20181125#DO#2-0:0#98045#55#201811151145#307194#</lin>
								<lin>SU#1#VR#120.10#0#BB#OK#20181125#20181126#DO#2-0:0#98045#55#201811151145#307194#</lin>
							</reg>
						</hab>
					</pax>
				</res>
				<pns>N</pns>
				<end>0</end>
				<enh>12</enh>
				<cat2></cat2>
				<tipo_establecimiento>Resort</tipo_establecimiento>
			</hot>
		</hotls>
		<id>a0cd49c9-43f7-427f-a16f-c2e20109448d</id>
	</param>
</respuesta> ,RateplanId:1a35c90866fa40d82ffced3118a42bf8, Time:2018/11/15 18:46:01 
发生时间：2018/11/15 18:46:01
---------
日志内容：Studio：报价(Service 110) ,请求数据(Req) :<?xml version='1.0' encoding='ISO-8859-1' ?>
<!DOCTYPE peticion SYSTEM 'http://xml.hotelresb2b.com/xml/dtd/pet_disponibilidad_110.dtd'><peticion><tipo>110</tipo><nombre></nombre>
<agencia></agencia><parametros><hotel>307194#</hotel><pais>TH</pais><provincia>THHKT</provincia><poblacion></poblacion><categoria>0</categoria>
<radio>9</radio><fechaentrada>11/21/2018</fechaentrada><fechasalida>11/26/2018</fechasalida><marca></marca><afiliacion>RS</afiliacion>
<usuario>E33137</usuario><numhab1>1</numhab1><paxes1>2-0</paxes1><edades1>0</edades1><numhab2>0</numhab2><paxes2>0</paxes2><edades2>0</edades2>
<numhab3>0</numhab3><paxes3>0</paxes3><edades3>0</edades3><idioma>2</idioma><duplicidad>1</duplicidad><comprimido>2</comprimido><informacion_hotel>0</informacion_hotel></parametros></peticion> , 返回数据(Resp) ：<?xml version="1.0" encoding="ISO-8859-1"?>
<!DOCTYPE respuesta SYSTEM "http://xml.hotelresb2b.com/xml/dtd/res_disponibilidad_110.dtd">
<respuesta>
	<tipo>110</tipo>
	<nombre></nombre>
	<agencia>GUANGZHOU XIWAN INT.TRAVEL AGENCY XML @</agencia>
	<param>
		<hotls num="1">
			<hot>
				<cod>307194</cod>
				<afi>RS</afi>
				<nom>THE SENSES RESORT</nom>
				<pro>THHKT</pro>
				<prn>PHUKET</prn>
				<pob>PATONG BEACH</pob>
				<cat>4</cat>
				<fen>20181121</fen>
				<fsa>20181126</fsa>
				<pdr>N</pdr>
				<cal>0</cal>
				<mar>EI#</mar>
				<res>
					<pax cod="2-0">
						<hab cod="-5" desc="Double, corner">
							<reg cod="BB" prr="491.25" div="DO" esr="OK" nr="1">
								<lin>-5#1#VR#98.25#0#BB#OK#20181121#20181122#DO#2-0:0#98045#55#201811151149#307194#</lin>
								<lin>-5#1#VR#98.25#0#BB#OK#20181122#20181123#DO#2-0:0#98045#55#201811151149#307194#</lin>
								<lin>-5#1#VR#98.25#0#BB#OK#20181123#20181124#DO#2-0:0#98045#55#201811151149#307194#</lin>
								<lin>-5#1#VR#98.25#0#BB#OK#20181124#20181125#DO#2-0:0#98045#55#201811151149#307194#</lin>
								<lin>-5#1#VR#98.25#0#BB#OK#20181125#20181126#DO#2-0:0#98045#55#201811151149#307194#</lin>
							</reg>
						</hab>
						<hab cod="07" desc="Double Deluxe sea view">
							<reg cod="BB" prr="401.78" div="DO" esr="OK" nr="1">
								<lin>07#1#VR#87.34#0#BB#OK#20181121#20181122#DO#2-0:0#98045#55#201811151149#307194#</lin>
								<lin>07#1#VR#78.61#0#BB#OK#20181122#20181123#DO#2-0:0#98045#55#201811151149#307194#</lin>
								<lin>07#1#VR#78.61#0#BB#OK#20181123#20181124#DO#2-0:0#98045#55#201811151149#307194#</lin>
								<lin>07#1#VR#78.61#0#BB#OK#20181124#20181125#DO#2-0:0#98045#55#201811151149#307194#</lin>
								<lin>07#1#VR#78.61#0#BB#OK#20181125#20181126#DO#2-0:0#98045#55#201811151149#307194#</lin>
							</reg>
						</hab>
						<hab cod="K2" desc="Double Deluxe, pool view">
							<reg cod="BB" prr="731.46" div="DO" esr="OK" nr="1">
								<lin>K2#1#VR#141.93#0#BB#OK#20181121#20181122#DO#2-0:0#98045#55#201811151149#307194#</lin>
								<lin>K2#1#VR#131.01#0#BB#OK#20181122#20181123#DO#2-0:0#98045#55#201811151149#307194#</lin>
								<lin>K2#1#VR#152.84#0#BB#OK#20181123#20181124#DO#2-0:0#98045#55#201811151149#307194#</lin>
								<lin>K2#1#VR#152.84#0#BB#OK#20181124#20181125#DO#2-0:0#98045#55#201811151149#307194#</lin>
								<lin>K2#1#VR#152.84#0#BB#OK#20181125#20181126#DO#2-0:0#98045#55#201811151149#307194#</lin>
							</reg>
						</hab>
						<hab cod="SU" desc="Suite">
							<reg cod="BB" prr="600.50" div="DO" esr="OK" nr="1">
								<lin>SU#1#VR#120.10#0#BB#OK#20181121#20181122#DO#2-0:0#98045#55#201811151149#307194#</lin>
								<lin>SU#1#VR#120.10#0#BB#OK#20181122#20181123#DO#2-0:0#98045#55#201811151149#307194#</lin>
								<lin>SU#1#VR#120.10#0#BB#OK#20181123#20181124#DO#2-0:0#98045#55#201811151149#307194#</lin>
								<lin>SU#1#VR#120.10#0#BB#OK#20181124#20181125#DO#2-0:0#98045#55#201811151149#307194#</lin>
								<lin>SU#1#VR#120.10#0#BB#OK#20181125#20181126#DO#2-0:0#98045#55#201811151149#307194#</lin>
							</reg>
						</hab>
					</pax>
				</res>
				<pns>N</pns>
				<end>0</end>
				<enh>12</enh>
				<cat2></cat2>
				<tipo_establecimiento>Resort</tipo_establecimiento>
			</hot>
		</hotls>
		<id>d6517df7-6cc6-47f2-b6c3-def45b8d0308</id>
	</param>
</respuesta> ,RateplanId:12a0a1bfaf7d31575b33ff89892dc2be_307194_-5_bb, Time:2018/11/15 18:49:09 
发生时间：2018/11/15 18:49:09
