---------
日志内容：Err:Restel1从接口获取酒店信息并保存到数据库 ,sqlwhere :, Time:2018/11/1 11:03:08 
发生时间：2018/11/1 11:03:08
---------
日志内容：Err:Restel1从接口获取酒店信息并保存到数据库 ,sqlwhere :, Time:2018/11/1 11:03:44 
发生时间：2018/11/1 11:03:45
