---------
日志内容：Err：PostHttp ,错误信息 :操作超时 , Time:2018/9/25 10:17:07 
发生时间：2018/9/25 10:17:07
---------
日志内容：Err：PostHttp ,错误信息 :操作超时 , Time:2018/9/25 10:54:57 
发生时间：2018/9/25 10:54:57
---------
日志内容：Err：PostHttp ,错误信息 :操作超时 , Time:2018/9/25 10:55:21 
发生时间：2018/9/25 10:55:21
---------
日志内容：Err：PostHttp ,错误信息 :操作超时 , Time:2018/9/25 10:55:43 
发生时间：2018/9/25 10:55:43
---------
日志内容：Err：PostHttp ,错误信息 :操作超时 , Time:2018/9/25 10:56:07 
发生时间：2018/9/25 10:56:07
---------
日志内容：Err：PostHttp ,错误信息 :操作超时 , Time:2018/9/25 10:56:47 
发生时间：2018/9/25 10:56:47
---------
日志内容：Err：PostHttp ,错误信息 :操作超时 , Time:2018/9/25 10:57:16 
发生时间：2018/9/25 10:57:16
---------
日志内容：Err：PostHttp ,错误信息 :操作超时 , Time:2018/9/25 11:36:09 
发生时间：2018/9/25 11:36:09
---------
日志内容：Err：PostHttp ,错误信息 :操作超时 , Time:2018/9/25 14:04:42 
发生时间：2018/9/25 14:04:42
---------
日志内容：Err：PostHttp ,错误信息 :操作超时 , Time:2018/9/25 14:05:06 
发生时间：2018/9/25 14:05:06
---------
日志内容：Err：PostHttp ,错误信息 :操作超时 , Time:2018/9/25 14:05:30 
发生时间：2018/9/25 14:05:30
---------
日志内容：Err：PostHttp ,错误信息 :操作超时 , Time:2018/9/25 14:14:43 
发生时间：2018/9/25 14:14:43
---------
日志内容：Err：PostHttp ,错误信息 :操作超时 , Time:2018/9/25 15:30:21 
发生时间：2018/9/25 15:30:21
---------
日志内容：Err：PostHttp ,错误信息 :操作超时 , Time:2018/9/25 15:30:44 
发生时间：2018/9/25 15:30:44
---------
日志内容：Err：PostHttp ,错误信息 :操作超时 , Time:2018/9/25 15:49:52 
发生时间：2018/9/25 15:49:52
---------
日志内容：Err：PostHttp ,错误信息 :操作超时 , Time:2018/9/25 15:51:06 
发生时间：2018/9/25 15:51:06
---------
日志内容：Err：PostHttp ,错误信息 :操作超时 , Time:2018/9/25 15:51:33 
发生时间：2018/9/25 15:51:33
---------
日志内容：Err：Get函数 ,错误信息 :远程服务器返回错误: (404) 未找到。 , Time:2018/9/25 15:53:40 
发生时间：2018/9/25 15:53:40
---------
日志内容：Err：Get函数 ,错误信息 :远程服务器返回错误: (404) 未找到。 , Time:2018/9/25 15:53:44 
发生时间：2018/9/25 15:53:44
---------
日志内容：Err：Get函数 ,错误信息 :远程服务器返回错误: (404) 未找到。 , Time:2018/9/25 15:56:30 
发生时间：2018/9/25 15:56:30
---------
日志内容：Err：Get函数 ,错误信息 :操作超时 , Time:2018/9/25 16:35:56 
发生时间：2018/9/25 16:35:56
---------
日志内容：Err：PostHttp ,错误信息 :操作超时 , Time:2018/9/25 16:56:45 
发生时间：2018/9/25 16:56:45
---------
日志内容：Err：Xml解析为实例类 ,错误信息 :XML 文档(1, 1)中有错误。, 请求数据：操作超时 , Time:2018/9/25 16:56:45 
发生时间：2018/9/25 16:56:45
---------
日志内容：Err：PostHttp ,错误信息 :操作超时 , Time:2018/9/25 16:57:49 
发生时间：2018/9/25 16:57:56
---------
日志内容：Err：Xml解析为实例类 ,错误信息 :XML 文档(1, 1)中有错误。, 请求数据：操作超时 , Time:2018/9/25 16:57:56 
发生时间：2018/9/25 16:57:56
---------
日志内容：Err：PostHttp ,错误信息 :操作超时 , Time:2018/9/25 16:59:47 
发生时间：2018/9/25 16:59:47
---------
日志内容：Err：Xml解析为实例类 ,错误信息 :XML 文档(1, 1)中有错误。, 请求数据：操作超时 , Time:2018/9/25 16:59:47 
发生时间：2018/9/25 16:59:47
