---------
日志内容：Err：PostHttp ,错误信息 :远程服务器返回错误: (403) 已禁止。 , Time:2018/9/21 9:53:04 
发生时间：2018/9/21 9:53:04
---------
日志内容：Err：Get函数 ,错误信息 :远程服务器返回错误: (403) 已禁止。 , Time:2018/9/21 9:53:04 
发生时间：2018/9/21 9:53:04
---------
日志内容：Err：PostHttp ,错误信息 :远程服务器返回错误: (403) 已禁止。 , Time:2018/9/21 9:53:40 
发生时间：2018/9/21 9:53:40
---------
日志内容：Err：Get函数 ,错误信息 :远程服务器返回错误: (403) 已禁止。 , Time:2018/9/21 9:54:01 
发生时间：2018/9/21 9:54:01
---------
日志内容：Err：PostHttp ,错误信息 :远程服务器返回错误: (403) 已禁止。 , Time:2018/9/21 9:54:21 
发生时间：2018/9/21 9:54:21
---------
日志内容：Err：Get函数 ,错误信息 :远程服务器返回错误: (403) 已禁止。 , Time:2018/9/21 9:55:45 
发生时间：2018/9/21 9:55:45
---------
日志内容：Err：PostHttp ,错误信息 :远程服务器返回错误: (403) 已禁止。 , Time:2018/9/21 9:57:45 
发生时间：2018/9/21 9:57:49
---------
日志内容：Err：Get函数 ,错误信息 :远程服务器返回错误: (403) 已禁止。 , Time:2018/9/21 9:57:49 
发生时间：2018/9/21 9:57:49
---------
日志内容：Err：PostHttp ,错误信息 :操作超时 , Time:2018/9/21 11:12:37 
发生时间：2018/9/21 11:12:37
---------
日志内容：Err：PostHttp ,错误信息 :操作超时 , Time:2018/9/21 11:40:37 
发生时间：2018/9/21 11:40:37
---------
日志内容：Err:Restel从接口获取报价 ,err:列“hotelid”不属于表 。 , Time:2018/9/21 15:37:16 
发生时间：2018/9/21 15:37:16
---------
日志内容：Err:Restel从接口获取报价 ,err:列“hotelid”不属于表 。 , Time:2018/9/21 15:38:29 
发生时间：2018/9/21 15:38:29
---------
日志内容：Err:Restel从接口获取报价 ,err:列“hotelid”不属于表 。 , Time:2018/9/21 15:38:56 
发生时间：2018/9/21 15:38:56
---------
日志内容：Err:Restel从接口获取报价 ,err:列“[Hotel Id]”不属于表 。 , Time:2018/9/21 15:39:46 
发生时间：2018/9/21 15:39:46
---------
日志内容：Err:Restel从接口获取报价 ,err:列“[Hotel Id]”不属于表 。 , Time:2018/9/21 15:40:08 
发生时间：2018/9/21 15:40:08
---------
日志内容：Err:Restel从接口获取报价 ,err:列“[Hotel Id]”不属于表 。 , Time:2018/9/21 15:40:20 
发生时间：2018/9/21 15:40:20
---------
日志内容：Err：PostHttp ,错误信息 :操作超时 , Time:2018/9/21 16:33:33 
发生时间：2018/9/21 16:33:33
---------
日志内容：Err：Xml解析为实例类 ,错误信息 :XML 文档(1, 1)中有错误。, 请求数据：操作超时 , Time:2018/9/21 16:33:33 
发生时间：2018/9/21 16:33:33
---------
日志内容：Err：PostHttp ,错误信息 :操作超时 , Time:2018/9/21 16:34:18 
发生时间：2018/9/21 16:34:18
---------
日志内容：Err：Xml解析为实例类 ,错误信息 :XML 文档(1, 1)中有错误。, 请求数据：操作超时 , Time:2018/9/21 16:34:22 
发生时间：2018/9/21 16:34:22
---------
日志内容：Err:Restel从接口获取报价 ,err:列名 'id' 无效。 , Time:2018/9/21 16:47:36 
发生时间：2018/9/21 16:47:36
---------
日志内容：Err：PostHttp ,错误信息 :操作超时 , Time:2018/9/21 16:53:15 
发生时间：2018/9/21 16:53:15
---------
日志内容：Err：Xml解析为实例类 ,错误信息 :XML 文档(1, 1)中有错误。, 请求数据：操作超时 , Time:2018/9/21 16:53:15 
发生时间：2018/9/21 16:53:15
---------
日志内容：Err：PostHttp ,错误信息 :操作超时 , Time:2018/9/21 16:53:35 
发生时间：2018/9/21 16:53:35
---------
日志内容：Err：Xml解析为实例类 ,错误信息 :XML 文档(1, 1)中有错误。, 请求数据：操作超时 , Time:2018/9/21 16:53:35 
发生时间：2018/9/21 16:53:35
---------
日志内容：Err：PostHttp ,错误信息 :操作超时 , Time:2018/9/21 16:53:55 
发生时间：2018/9/21 16:53:55
---------
日志内容：Err：Xml解析为实例类 ,错误信息 :XML 文档(1, 1)中有错误。, 请求数据：操作超时 , Time:2018/9/21 16:53:55 
发生时间：2018/9/21 16:53:55
---------
日志内容：Err：PostHttp ,错误信息 :操作超时 , Time:2018/9/21 16:54:15 
发生时间：2018/9/21 16:54:15
---------
日志内容：Err：Xml解析为实例类 ,错误信息 :XML 文档(1, 1)中有错误。, 请求数据：操作超时 , Time:2018/9/21 16:54:15 
发生时间：2018/9/21 16:54:15
---------
日志内容：Err：PostHttp ,错误信息 :操作超时 , Time:2018/9/21 16:54:35 
发生时间：2018/9/21 16:54:35
---------
日志内容：Err：Xml解析为实例类 ,错误信息 :XML 文档(1, 1)中有错误。, 请求数据：操作超时 , Time:2018/9/21 16:54:35 
发生时间：2018/9/21 16:54:35
---------
日志内容：Err：PostHttp ,错误信息 :操作超时 , Time:2018/9/21 16:54:55 
发生时间：2018/9/21 16:54:55
---------
日志内容：Err：Xml解析为实例类 ,错误信息 :XML 文档(1, 1)中有错误。, 请求数据：操作超时 , Time:2018/9/21 16:54:55 
发生时间：2018/9/21 16:54:55
---------
日志内容：Err：PostHttp ,错误信息 :操作超时 , Time:2018/9/21 16:55:15 
发生时间：2018/9/21 16:55:15
---------
日志内容：Err：Xml解析为实例类 ,错误信息 :XML 文档(1, 1)中有错误。, 请求数据：操作超时 , Time:2018/9/21 16:55:15 
发生时间：2018/9/21 16:55:15
---------
日志内容：Err：PostHttp ,错误信息 :操作超时 , Time:2018/9/21 16:55:35 
发生时间：2018/9/21 16:55:35
---------
日志内容：Err：Xml解析为实例类 ,错误信息 :XML 文档(1, 1)中有错误。, 请求数据：操作超时 , Time:2018/9/21 16:55:35 
发生时间：2018/9/21 16:55:35
---------
日志内容：Err：PostHttp ,错误信息 :操作超时 , Time:2018/9/21 16:55:56 
发生时间：2018/9/21 16:55:56
---------
日志内容：Err：Xml解析为实例类 ,错误信息 :XML 文档(1, 1)中有错误。, 请求数据：操作超时 , Time:2018/9/21 16:55:56 
发生时间：2018/9/21 16:55:56
---------
日志内容：Err：PostHttp ,错误信息 :操作超时 , Time:2018/9/21 16:56:16 
发生时间：2018/9/21 16:56:16
---------
日志内容：Err：Xml解析为实例类 ,错误信息 :XML 文档(1, 1)中有错误。, 请求数据：操作超时 , Time:2018/9/21 16:56:16 
发生时间：2018/9/21 16:56:16
---------
日志内容：Err：PostHttp ,错误信息 :操作超时 , Time:2018/9/21 16:56:36 
发生时间：2018/9/21 16:56:36
---------
日志内容：Err：Xml解析为实例类 ,错误信息 :XML 文档(1, 1)中有错误。, 请求数据：操作超时 , Time:2018/9/21 16:56:36 
发生时间：2018/9/21 16:56:36
---------
日志内容：Err：PostHttp ,错误信息 :操作超时 , Time:2018/9/21 16:56:56 
发生时间：2018/9/21 16:56:56
---------
日志内容：Err：Xml解析为实例类 ,错误信息 :XML 文档(1, 1)中有错误。, 请求数据：操作超时 , Time:2018/9/21 16:56:56 
发生时间：2018/9/21 16:56:56
---------
日志内容：Err：PostHttp ,错误信息 :操作超时 , Time:2018/9/21 17:01:33 
发生时间：2018/9/21 17:01:33
---------
日志内容：Err：Xml解析为实例类 ,错误信息 :XML 文档(1, 1)中有错误。, 请求数据：操作超时 , Time:2018/9/21 17:01:33 
发生时间：2018/9/21 17:01:33
---------
日志内容：Err：PostHttp ,错误信息 :操作超时 , Time:2018/9/21 17:01:53 
发生时间：2018/9/21 17:01:53
---------
日志内容：Err：Xml解析为实例类 ,错误信息 :XML 文档(1, 1)中有错误。, 请求数据：操作超时 , Time:2018/9/21 17:01:53 
发生时间：2018/9/21 17:01:53
---------
日志内容：Err：PostHttp ,错误信息 :操作超时 , Time:2018/9/21 17:02:13 
发生时间：2018/9/21 17:02:13
---------
日志内容：Err：Xml解析为实例类 ,错误信息 :XML 文档(1, 1)中有错误。, 请求数据：操作超时 , Time:2018/9/21 17:02:13 
发生时间：2018/9/21 17:02:13
---------
日志内容：Err：PostHttp ,错误信息 :操作超时 , Time:2018/9/21 17:02:33 
发生时间：2018/9/21 17:02:33
---------
日志内容：Err：Xml解析为实例类 ,错误信息 :XML 文档(1, 1)中有错误。, 请求数据：操作超时 , Time:2018/9/21 17:02:33 
发生时间：2018/9/21 17:02:33
---------
日志内容：Err：PostHttp ,错误信息 :操作超时 , Time:2018/9/21 17:02:53 
发生时间：2018/9/21 17:02:53
---------
日志内容：Err：Xml解析为实例类 ,错误信息 :XML 文档(1, 1)中有错误。, 请求数据：操作超时 , Time:2018/9/21 17:02:53 
发生时间：2018/9/21 17:02:53
---------
日志内容：Err：PostHttp ,错误信息 :操作超时 , Time:2018/9/21 17:03:13 
发生时间：2018/9/21 17:03:13
---------
日志内容：Err：Xml解析为实例类 ,错误信息 :XML 文档(1, 1)中有错误。, 请求数据：操作超时 , Time:2018/9/21 17:03:13 
发生时间：2018/9/21 17:03:13
---------
日志内容：Err：PostHttp ,错误信息 :操作超时 , Time:2018/9/21 17:03:33 
发生时间：2018/9/21 17:03:33
---------
日志内容：Err：Xml解析为实例类 ,错误信息 :XML 文档(1, 1)中有错误。, 请求数据：操作超时 , Time:2018/9/21 17:03:33 
发生时间：2018/9/21 17:03:33
---------
日志内容：Err：PostHttp ,错误信息 :操作超时 , Time:2018/9/21 17:03:53 
发生时间：2018/9/21 17:03:53
---------
日志内容：Err：Xml解析为实例类 ,错误信息 :XML 文档(1, 1)中有错误。, 请求数据：操作超时 , Time:2018/9/21 17:03:53 
发生时间：2018/9/21 17:03:53
---------
日志内容：Err：PostHttp ,错误信息 :操作超时 , Time:2018/9/21 17:04:13 
发生时间：2018/9/21 17:04:13
---------
日志内容：Err：Xml解析为实例类 ,错误信息 :XML 文档(1, 1)中有错误。, 请求数据：操作超时 , Time:2018/9/21 17:04:13 
发生时间：2018/9/21 17:04:13
---------
日志内容：Err：PostHttp ,错误信息 :操作超时 , Time:2018/9/21 17:22:08 
发生时间：2018/9/21 17:22:30
---------
日志内容：Err：Xml解析为实例类 ,错误信息 :XML 文档(1, 1)中有错误。, 请求数据：操作超时 , Time:2018/9/21 17:22:30 
发生时间：2018/9/21 17:22:30
---------
日志内容：Err：PostHttp ,错误信息 :操作超时 , Time:2018/9/21 17:22:55 
发生时间：2018/9/21 17:22:55
---------
日志内容：Err：Xml解析为实例类 ,错误信息 :XML 文档(1, 1)中有错误。, 请求数据：操作超时 , Time:2018/9/21 17:23:17 
发生时间：2018/9/21 17:23:17
---------
日志内容：Err：PostHttp ,错误信息 :操作超时 , Time:2018/9/21 17:23:51 
发生时间：2018/9/21 17:23:51
---------
日志内容：Err：Xml解析为实例类 ,错误信息 :XML 文档(1, 1)中有错误。, 请求数据：操作超时 , Time:2018/9/21 17:23:57 
发生时间：2018/9/21 17:23:57
---------
日志内容：Err：PostHttp ,错误信息 :操作超时 , Time:2018/9/21 17:24:23 
发生时间：2018/9/21 17:24:23
---------
日志内容：Err：Xml解析为实例类 ,错误信息 :XML 文档(1, 1)中有错误。, 请求数据：操作超时 , Time:2018/9/21 17:25:06 
发生时间：2018/9/21 17:25:06
