---------
日志内容：Studio：Restel(平台请求)获取报价 ,请求数据 :GetRoomTypePrice{"hotelId":"610503","arrivalDate":"2018-11-26","departureDate":"2018-11-29","IntOccupancyInfo":{"adults":2,"childAges":null,"children":0},"rateplanId":"ce2919bc76f7348f0caa03dc5d6b0c58","roomNum":1} , 返回数据：[] ，Time:2018/11/26 17:13:55 
发生时间：2018/11/26 17:13:55
---------
日志内容：Studio：Restel(平台请求)获取报价 ,请求数据 :GetRoomTypePrice{"hotelId":"610503","arrivalDate":"2018-11-26","departureDate":"2018-11-29","IntOccupancyInfo":{"adults":2,"childAges":null,"children":0},"rateplanId":"ce2919bc76f7348f0caa03dc5d6b0c58","roomNum":1} , 返回数据：[] ，Time:2018/11/26 17:16:01 
发生时间：2018/11/26 17:16:01
---------
日志内容：Studio：Restel(平台请求)获取报价 ,请求数据 :GetRoomTypePrice{"hotelId":"610503","arrivalDate":"2018-11-26","departureDate":"2018-11-29","IntOccupancyInfo":{"adults":2,"childAges":null,"children":0},"rateplanId":"ce2919bc76f7348f0caa03dc5d6b0c58","roomNum":1} , 返回数据：[] ，Time:2018/11/26 17:16:52 
发生时间：2018/11/26 17:16:52
---------
日志内容：Studio：Restel(平台请求)获取报价 ,请求数据 :GetRoomTypePrice{"hotelId":"610503","arrivalDate":"2018-11-26","departureDate":"2018-11-29","IntOccupancyInfo":{"adults":2,"childAges":null,"children":0},"rateplanId":"ce2919bc76f7348f0caa03dc5d6b0c58","roomNum":1} , 返回数据：[] ，Time:2018/11/26 17:29:24 
发生时间：2018/11/26 17:29:24
---------
日志内容：Studio：Restel(平台请求)获取报价 ,请求数据 :GetRoomTypePrice{"hotelId":"610503","arrivalDate":"2018-11-26","departureDate":"2018-11-29","IntOccupancyInfo":{"adults":2,"childAges":null,"children":0},"rateplanId":"ce2919bc76f7348f0caa03dc5d6b0c58","roomNum":1} , 返回数据：[] ，Time:2018/11/26 17:30:17 
发生时间：2018/11/26 17:30:17
---------
日志内容：Studio：Restel(平台请求)获取报价 ,请求数据 :GetRoomTypePrice{"hotelId":"610503","arrivalDate":"2018-11-26","departureDate":"2018-11-29","IntOccupancyInfo":{"adults":2,"childAges":null,"children":0},"rateplanId":"ce2919bc76f7348f0caa03dc5d6b0c58","roomNum":1} , 返回数据：[] ，Time:2018/11/26 17:31:36 
发生时间：2018/11/26 17:31:36
---------
日志内容：Studio：Restel(平台请求)获取报价 ,请求数据 :GetRoomTypePrice{"hotelId":"610503","arrivalDate":"2018-11-26","departureDate":"2018-11-29","IntOccupancyInfo":{"adults":2,"childAges":null,"children":0},"rateplanId":"6387e89659956a2ea6ce5c45d07779a7","roomNum":1} , 返回数据：[{"AddValue":null,"IsHasMobile":false,"RoomName":"2 Beds Full size (2 pax)","AddBed":null,"RoomId":"db369ff336ce87b1e8ccc068aa1ecfa6_6387e89659956a2ea6ce5c45d07779a7","RoomTypeId":"db369ff336ce87b1e8ccc068aa1ecfa6","BedType":"其他","Net":null,"Area":null,"RoomFloor":null,"Desc":null,"RoomPrice":895,"Note":null,"Detail":null,"ExtraMoney":0,"AdWay":null,"XRoomId":"db369ff336ce87b1e8ccc068aa1ecfa6_6387e89659956a2ea6ce5c45d07779a7","XRoomName":"2 Beds Full size (2 pax)","RatePlan":[{"BedType":"其他","AddBed":"-1","Currency":"RMB","RoomInventoryStatusCode":"1","RoomId":"db369ff336ce87b1e8ccc068aa1ecfa6_6387e89659956a2ea6ce5c45d07779a7","RoomName":"2 Beds Full size (2 pax)(无早)[内宾]","CurrentAlloment":15,"CustomerType":null,"MinAmount":0,"RoomBonus":0,"RoomTypeId":"db369ff336ce87b1e8ccc068aa1ecfa6","RatePlanId":"6387e89659956a2ea6ce5c45d07779a7","RatePlanName":"2 Beds Full size (2 pax)(无早)[内宾]","Net":null,"RoomTypeImg":null,"AveragePrice":"895.11","Breakfast":"0份早餐","Guarantee":null,"AddValue":null,"Promotion":null,"XRatePlanName":"2 Beds Full size (2 pax)(无早)[内宾]","PayMent":"y","Desc":null,"Available":true,"VouchNode":null,"Vouch":null,"Rates":[{"AmountBeforeTax":0.0,"Bonus":0,"DateStr":"11-26","WeekStr":"u5468u4e00","Available":true,"InstantCode":false,"CostPrice":0.0,"AddBedRate":0.0,"Commission":0.0,"CurrencyCode":null,"Date":"2018-11-26T00:00:00","HotelID":"895.11","InvStatusCode":null,"MemberRate":895.11,"MyHotelID":null,"RatePlanID":null,"RetailRate":895.11,"RoomTypeID":null},{"AmountBeforeTax":0.0,"Bonus":0,"DateStr":"11-27","WeekStr":"u5468u4e8c","Available":true,"InstantCode":false,"CostPrice":0.0,"AddBedRate":0.0,"Commission":0.0,"CurrencyCode":null,"Date":"2018-11-27T00:00:00","HotelID":"895.11","InvStatusCode":null,"MemberRate":895.11,"MyHotelID":null,"RatePlanID":null,"RetailRate":895.11,"RoomTypeID":null},{"AmountBeforeTax":0.0,"Bonus":0,"DateStr":"11-28","WeekStr":"u5468u4e09","Available":true,"InstantCode":false,"CostPrice":0.0,"AddBedRate":0.0,"Commission":0.0,"CurrencyCode":null,"Date":"2018-11-28T00:00:00","HotelID":"895.11","InvStatusCode":null,"MemberRate":895.11,"MyHotelID":null,"RatePlanID":null,"RetailRate":895.11,"RoomTypeID":null}],"ExtraBonus":0,"SMoney":2685.34,"InstantCode":false,"CnPrice":0.0,"RMBPrice":0.0,"ViennaDirectFlag":false,"CurrencyCode":"USD:7","MinDays":0,"InvoiceMode":null}],"MroomId":"db369ff336ce87b1e8ccc068aa1ecfa6","MroomName":"2 Beds Full size (2 pax)","MroomNameEn":"2 Beds Full size (2 pax)","YMroomName":null,"Adults":2,"Children":0,"ChildAges":"0","MaxPerson":2,"ProductSource":"Restel","CurrentAlloment":15,"ProductELIntel":null}] ，Time:2018/11/26 17:31:59 
发生时间：2018/11/26 17:31:59
---------
日志内容：Studio：Restel(平台请求)获取报价 ,请求数据 :GetRoomTypePrice{"hotelId":"610503","arrivalDate":"2018-11-26","departureDate":"2018-11-29","IntOccupancyInfo":{"adults":2,"childAges":null,"children":0},"rateplanId":"6387e89659956a2ea6ce5c45d07779a7","roomNum":1} , 返回数据：[] ，Time:2018/11/26 17:57:19 
发生时间：2018/11/26 17:57:19
---------
日志内容：Studio：Restel(平台请求)获取报价 ,请求数据 :GetRoomTypePrice{"hotelId":"610503","arrivalDate":"2018-11-26","departureDate":"2018-11-29","IntOccupancyInfo":{"adults":2,"childAges":null,"children":0},"rateplanId":"6387e89659956a2ea6ce5c45d07779a7","roomNum":1} , 返回数据：[] ，Time:2018/11/26 17:57:35 
发生时间：2018/11/26 17:57:35
---------
日志内容：Studio：Restel(平台请求)获取报价 ,请求数据 :GetRoomTypePrice{"hotelId":"610503","arrivalDate":"2018-11-26","departureDate":"2018-11-29","IntOccupancyInfo":{"adults":2,"childAges":null,"children":0},"rateplanId":"6387e89659956a2ea6ce5c45d07779a7","roomNum":1} , 返回数据：[] ，Time:2018/11/26 17:59:21 
发生时间：2018/11/26 17:59:21
