---------
日志内容：Application结束：2018/12/4 9:39:37
发生时间：2018/12/4 9:39:37
---------
日志内容：Application结束：2018/12/4 10:12:37
发生时间：2018/12/4 10:12:37
---------
日志内容：Application结束：2018/12/4 10:16:34
发生时间：2018/12/4 10:16:34
---------
日志内容：Application结束：2018/12/4 10:49:55
发生时间：2018/12/4 10:49:55
---------
日志内容：Application结束：2018/12/4 15:26:32
发生时间：2018/12/4 15:26:32
---------
日志内容：Application结束：2018/12/4 18:28:03
发生时间：2018/12/4 18:28:03
---------
日志内容：Application结束：2018/12/4 18:35:42
发生时间：2018/12/4 18:35:42
---------
日志内容：Application结束：2018/12/4 18:46:54
发生时间：2018/12/4 18:46:54
---------
日志内容：Application结束：2018/12/4 18:48:07
发生时间：2018/12/4 18:48:07
---------
日志内容：Application结束：2018/12/4 18:58:12
发生时间：2018/12/4 18:58:12
---------
日志内容：Application结束：2018/12/4 18:58:41
发生时间：2018/12/4 18:58:41
---------
日志内容：Application结束：2018/12/4 18:59:25
发生时间：2018/12/4 18:59:25
