---------
日志内容：Err:Planitour获取国家信息（从对方系统拿数据） ,err:应为来自命名空间“”的元素“root”。。遇到名称为“”、命名空间为“”的“None”。 , Time:2018/7/20 10:02:52 
发生时间：2018/7/20 10:02:52
---------
日志内容：Err:Planitour获取目的地（从对方系统拿数据） ,err:输入字符串的格式不正确。 , Time:2018/7/20 10:37:52 
发生时间：2018/7/20 10:37:52
---------
日志内容：Err:Planitour获取目的地（从对方系统拿数据） ,err:输入字符串的格式不正确。 , Time:2018/7/20 10:39:57 
发生时间：2018/7/20 10:39:57
---------
日志内容：Err:Planitour获取目的地（从对方系统拿数据） ,err:输入字符串的格式不正确。 , Time:2018/7/20 10:44:08 
发生时间：2018/7/20 10:44:08
---------
日志内容：Err:Planitour获取目的地（从对方系统拿数据） ,err:传入的对象无效，应为“:”或“}”。 (167): [{"DestinationId": 312495,"Name": "PARIS","ParentDestinationId": null,"Children": [{"DestinationId": 497734,"Name": "Test","ParentDestinationId": 312495,"Children": [] , Time:2018/7/20 10:45:44 
发生时间：2018/7/20 10:45:44
---------
日志内容：Err:Planitour获取目的地（从对方系统拿数据） ,err:传入的对象无效，应为“:”或“}”。 (167): [{"DestinationId": 312495,"Name": "PARIS","ParentDestinationId": null,"Children": [{"DestinationId": 497734,"Name": "Test","ParentDestinationId": 312495,"Children": [] , Time:2018/7/20 10:49:41 
发生时间：2018/7/20 10:49:41
---------
日志内容：Err:Planitour获取国家信息（从对方系统拿数据） ,err:StartIndex 不能小于 0。
参数名: startIndex , Time:2018/7/20 10:57:25 
发生时间：2018/7/20 10:57:25
