---------
日志内容：Err:SunSeries获取报价 ,err:索引超出范围。必须为非负值并小于集合大小。
参数名: index , 请求数据:{"criteria":{"from":"2018-12-27","to":"2018-12-28","hotel_ids":["suns00866"],"customer_country":"country::thailand","city":"city::chiang_mai","rooms":[{"adults":2,"children":[]}]}} , Time:2018/11/19 11:18:58 
发生时间：2018/11/19 11:18:58
---------
日志内容：Err:SunSeries获取报价 ,err:索引超出范围。必须为非负值并小于集合大小。
参数名: index , 请求数据:{"criteria":{"from":"2018-12-27","to":"2018-12-28","hotel_ids":["suns00866"],"customer_country":"country::thailand","city":"city::chiang_mai","rooms":[{"adults":2,"children":[]}]}} , Time:2018/11/19 11:22:27 
发生时间：2018/11/19 11:22:27
---------
日志内容：Err：WebReq函数 ,错误信息 :远程服务器返回错误: (400) 错误的请求。 , Time:2018/11/19 14:31:53 
发生时间：2018/11/19 14:31:53
---------
日志内容：Err:Asianoverland获取报价 ,err:输入字符串的格式不正确。 , 请求数据:action=hotel_search&username=xiwan_ws&password=rebecca@123&checkin_date=20/11/2018&checkout_date=21/11/2018&sel_country=51&sel_city=50012&chk_ratings=1.0,2.0,3.0,4.0,5.0&sel_nationality=103&country_of_residence=103&sel_currency=CNY&availableonly=1&sel_hotel=Adeona SKI & SPA&timeout=30&static_data=0&number_of_rooms=1&roomDetails=[
  {
    "numberOfAdults": 1
  }
]&limit_hotel_room_type=4&gzip=no , Time:2018/11/19 16:50:06 
发生时间：2018/11/19 16:50:06
---------
日志内容：Err:Asianoverland获取报价 ,err:输入字符串的格式不正确。 , 请求数据:action=hotel_search&username=xiwan_ws&password=rebecca@123&checkin_date=20/11/2018&checkout_date=21/11/2018&sel_country=51&sel_city=50012&chk_ratings=1.0,2.0,3.0,4.0,5.0&sel_nationality=103&country_of_residence=103&sel_currency=CNY&availableonly=1&sel_hotel=Adeona SKI & SPA&timeout=30&static_data=0&number_of_rooms=1&roomDetails=[
  {
    "numberOfAdults": 1
  }
]&limit_hotel_room_type=4&gzip=no , Time:2018/11/19 16:51:22 
发生时间：2018/11/19 16:51:22
---------
日志内容：Err:Asianoverland获取报价 ,err:输入字符串的格式不正确。 , 请求数据:action=hotel_search&username=xiwan_ws&password=rebecca@123&checkin_date=20/11/2018&checkout_date=21/11/2018&sel_country=51&sel_city=50012&chk_ratings=1.0,2.0,3.0,4.0,5.0&sel_nationality=103&country_of_residence=103&sel_currency=CNY&availableonly=1&sel_hotel=Adeona SKI & SPA&timeout=30&static_data=0&number_of_rooms=1&roomDetails=[
  {
    "numberOfAdults": 1
  }
]&limit_hotel_room_type=4&gzip=no , Time:2018/11/19 16:51:38 
发生时间：2018/11/19 16:51:38
---------
日志内容：Err:Asianoverland获取报价 ,err:输入字符串的格式不正确。 , 请求数据:action=hotel_search&username=xiwan_ws&password=rebecca@123&checkin_date=20/11/2018&checkout_date=21/11/2018&sel_country=51&sel_city=50012&chk_ratings=1.0,2.0,3.0,4.0,5.0&sel_nationality=103&country_of_residence=103&sel_currency=CNY&availableonly=1&sel_hotel=Adeona SKI & SPA&timeout=30&static_data=0&number_of_rooms=1&roomDetails=[
  {
    "numberOfAdults": 1
  }
]&limit_hotel_room_type=4&gzip=no , Time:2018/11/19 16:51:42 
发生时间：2018/11/19 16:51:42
---------
日志内容：Err:Asianoverland获取报价 ,err:输入字符串的格式不正确。 , 请求数据:action=hotel_search&username=xiwan_ws&password=rebecca@123&checkin_date=20/11/2018&checkout_date=21/11/2018&sel_country=51&sel_city=50012&chk_ratings=1.0,2.0,3.0,4.0,5.0&sel_nationality=103&country_of_residence=103&sel_currency=CNY&availableonly=1&sel_hotel=Adeona SKI & SPA&timeout=30&static_data=0&number_of_rooms=1&roomDetails=[
  {
    "numberOfAdults": 1
  }
]&limit_hotel_room_type=4&gzip=no , Time:2018/11/19 16:52:36 
发生时间：2018/11/19 16:52:36
---------
日志内容：Err:Asianoverland获取报价 ,err:输入字符串的格式不正确。 , 请求数据:action=hotel_search&username=xiwan_ws&password=rebecca@123&checkin_date=20/11/2018&checkout_date=21/11/2018&sel_country=51&sel_city=50012&chk_ratings=1.0,2.0,3.0,4.0,5.0&sel_nationality=103&country_of_residence=103&sel_currency=CNY&availableonly=1&sel_hotel=Adeona SKI & SPA&timeout=30&static_data=0&number_of_rooms=1&roomDetails=[
  {
    "numberOfAdults": 1
  }
]&limit_hotel_room_type=4&gzip=no , Time:2018/11/19 16:53:54 
发生时间：2018/11/19 16:53:54
---------
日志内容：Err:Asianoverland获取报价 ,err:输入字符串的格式不正确。 , 请求数据:action=hotel_search&username=xiwan_ws&password=rebecca@123&checkin_date=20/11/2018&checkout_date=21/11/2018&sel_country=51&sel_city=50012&chk_ratings=1.0,2.0,3.0,4.0,5.0&sel_nationality=103&country_of_residence=103&sel_currency=CNY&availableonly=1&sel_hotel=Adeona SKI & SPA&timeout=30&static_data=0&number_of_rooms=1&roomDetails=[
  {
    "numberOfAdults": 1
  }
]&limit_hotel_room_type=4&gzip=no , Time:2018/11/19 16:55:01 
发生时间：2018/11/19 16:55:01
---------
日志内容：Err：Restel查看订单失败 ,err:无该订单号 , Time:2018/11/19 17:52:27 
发生时间：2018/11/19 17:52:27
---------
日志内容：Err：Restel查看订单失败 ,err:无该订单号 , Time:2018/11/19 17:53:10 
发生时间：2018/11/19 17:53:10
---------
日志内容：Err：PostHttp ,错误信息 :操作超时 , Time:2018/11/19 17:57:35 
发生时间：2018/11/19 17:57:35
---------
日志内容：Err：Xml解析为实例类 ,错误信息 :XML 文档(1, 1)中有错误。, 请求数据：操作超时 , Time:2018/11/19 17:57:35 
发生时间：2018/11/19 17:57:35
---------
日志内容：Err:Restel从接口保存房型 ,err:未将对象引用设置到对象的实例。 , Time:2018/11/19 18:09:39 
发生时间：2018/11/19 18:09:39
