---------
日志内容：Studio：SunSeries(平台请求)获取报价 ,请求数据 :GetRoomTypePrice{"hotelId":"suns00818","arrivalDate":"2018-12-26","departureDate":"2018-12-27","IntOccupancyInfo":{"adults":1,"childAges":null,"children":0},"rateplanId":"11c46909468d1423735a1b19b339a837","roomNum":1} , 返回数据：[] ， Time:2018/11/16 13:59:21 
发生时间：2018/11/16 13:59:21
---------
日志内容：Studio：SunSeries(平台请求)获取报价 ,请求数据 :GetRoomTypePrice{"hotelId":"suns00818","arrivalDate":"2018-12-26","departureDate":"2018-12-27","IntOccupancyInfo":{"adults":1,"childAges":null,"children":0},"rateplanId":"00818-0000002-11c46909468d1423735a1b19b339a837","roomNum":1} , 返回数据：[{"AddValue":null,"IsHasMobile":false,"RoomName":"One Bedroom Deluxe","AddBed":null,"RoomId":"00818-0000002_00818-0000002-11c46909468d1423735a1b19b339a837","RoomTypeId":"00818-0000002","BedType":"单人床","Net":null,"Area":null,"RoomFloor":null,"Desc":null,"RoomPrice":428,"Note":null,"Detail":null,"ExtraMoney":0,"AdWay":null,"XRoomId":"00818-0000002_00818-0000002-11c46909468d1423735a1b19b339a837","XRoomName":"One Bedroom Deluxe","RatePlan":[{"BedType":"单人床","AddBed":"-1","Currency":"RMB","RoomInventoryStatusCode":"1","RoomId":"00818-0000002_00818-0000002-11c46909468d1423735a1b19b339a837","RoomName":"One Bedroom Deluxe(无早)[内宾]","CurrentAlloment":10,"CustomerType":null,"MinAmount":0,"RoomBonus":0,"RoomTypeId":"backend_hotel::bess-suns00818-0000002","RatePlanId":"00818-0000002-11c46909468d1423735a1b19b339a837","RatePlanName":"One Bedroom Deluxe(无早)","Net":null,"RoomTypeImg":null,"AveragePrice":"428.00","Breakfast":"0份早餐","Guarantee":null,"AddValue":null,"Promotion":null,"XRatePlanName":"One Bedroom Deluxe(无早)","PayMent":"y","Desc":null,"Available":true,"VouchNode":null,"Vouch":null,"Rates":[{"AmountBeforeTax":0.0,"Bonus":0,"DateStr":"12-26","WeekStr":"u5468u4e09","Available":true,"InstantCode":false,"CostPrice":0.0,"AddBedRate":0.0,"Commission":0.0,"CurrencyCode":null,"Date":"2018-12-26T00:00:00","HotelID":"428.00","InvStatusCode":null,"MemberRate":428.00,"MyHotelID":null,"RatePlanID":null,"RetailRate":428.00,"RoomTypeID":null}],"ExtraBonus":0,"SMoney":428.0,"InstantCode":false,"CnPrice":0.0,"RMBPrice":0.0,"ViennaDirectFlag":false,"CurrencyCode":"HKD:1","MinDays":0,"InvoiceMode":null}],"MroomId":"00818-0000002","MroomName":"One Bedroom Deluxe","MroomNameEn":"One Bedroom Deluxe","YMroomName":null,"Adults":1,"Children":0,"ChildAges":"","MaxPerson":1,"ProductSource":"SunSeries","CurrentAlloment":10,"ProductELIntel":null}] ， Time:2018/11/16 14:16:23 
发生时间：2018/11/16 14:16:23
---------
日志内容：Studio：SunSeries(平台请求)获取报价 ,请求数据 :GetRoomTypePrice{"hotelId":"suns00818","arrivalDate":"2018-12-26","departureDate":"2018-12-27","IntOccupancyInfo":{"adults":1,"childAges":null,"children":0},"rateplanId":"00818-0000002-11c46909468d1423735a1b19b339a837","roomNum":2} , 返回数据：[] ， Time:2018/11/16 14:16:35 
发生时间：2018/11/16 14:16:35
---------
日志内容：Studio：SunSeries(平台请求)获取报价 ,请求数据 :GetRoomTypePrice{"hotelId":"suns00818","arrivalDate":"2018-12-26","departureDate":"2018-12-27","IntOccupancyInfo":{"adults":1,"childAges":null,"children":0},"rateplanId":"00818-0000002-11c46909468d1423735a1b19b339a837","roomNum":2} , 返回数据：[] ， Time:2018/11/16 14:17:25 
发生时间：2018/11/16 14:17:25
---------
日志内容：Studio：SunSeries(平台请求)获取报价 ,请求数据 :GetRoomTypePrice{"hotelId":"suns00818","arrivalDate":"2018-12-26","departureDate":"2018-12-27","IntOccupancyInfo":{"adults":1,"childAges":null,"children":0},"rateplanId":"00818-0000002-11c46909468d1423735a1b19b339a837","roomNum":2} , 返回数据：[] ， Time:2018/11/16 14:19:05 
发生时间：2018/11/16 14:19:05
---------
日志内容：Studio：SunSeries(平台请求)获取报价 ,请求数据 :GetRoomTypePrice{"hotelId":"suns00818","arrivalDate":"2018-11-29","departureDate":"2018-12-01","IntOccupancyInfo":{"adults":1,"childAges":null,"children":0},"rateplanId":"00818-0000002-7d68a7443b6da56a0751b544a03eb4ed","roomNum":1} , 返回数据：[{"AddValue":null,"IsHasMobile":false,"RoomName":"One Bedroom Deluxe","AddBed":null,"RoomId":"00818-0000002_00818-0000002-7d68a7443b6da56a0751b544a03eb4ed","RoomTypeId":"00818-0000002","BedType":"单人床","Net":null,"Area":null,"RoomFloor":null,"Desc":null,"RoomPrice":484,"Note":null,"Detail":null,"ExtraMoney":0,"AdWay":null,"XRoomId":"00818-0000002_00818-0000002-7d68a7443b6da56a0751b544a03eb4ed","XRoomName":"One Bedroom Deluxe","RatePlan":[{"BedType":"单人床","AddBed":"-1","Currency":"RMB","RoomInventoryStatusCode":"1","RoomId":"00818-0000002_00818-0000002-7d68a7443b6da56a0751b544a03eb4ed","RoomName":"One Bedroom Deluxe(无早)[内宾]","CurrentAlloment":10,"CustomerType":null,"MinAmount":0,"RoomBonus":0,"RoomTypeId":"backend_hotel::bess-suns00818-0000002","RatePlanId":"00818-0000002-7d68a7443b6da56a0751b544a03eb4ed","RatePlanName":"One Bedroom Deluxe(无早)","Net":null,"RoomTypeImg":null,"AveragePrice":"484.00","Breakfast":"0份早餐","Guarantee":null,"AddValue":null,"Promotion":null,"XRatePlanName":"One Bedroom Deluxe(无早)","PayMent":"y","Desc":null,"Available":true,"VouchNode":null,"Vouch":null,"Rates":[{"AmountBeforeTax":0.0,"Bonus":0,"DateStr":"11-29","WeekStr":"u5468u56db","Available":true,"InstantCode":false,"CostPrice":0.0,"AddBedRate":0.0,"Commission":0.0,"CurrencyCode":null,"Date":"2018-11-29T00:00:00","HotelID":"484.00","InvStatusCode":null,"MemberRate":484.00,"MyHotelID":null,"RatePlanID":null,"RetailRate":484.00,"RoomTypeID":null},{"AmountBeforeTax":0.0,"Bonus":0,"DateStr":"12-01","WeekStr":"u5468u516d","Available":true,"InstantCode":false,"CostPrice":0.0,"AddBedRate":0.0,"Commission":0.0,"CurrencyCode":null,"Date":"2018-12-01T00:00:00","HotelID":"484.00","InvStatusCode":null,"MemberRate":484.00,"MyHotelID":null,"RatePlanID":null,"RetailRate":484.00,"RoomTypeID":null}],"ExtraBonus":0,"SMoney":968.0,"InstantCode":false,"CnPrice":0.0,"RMBPrice":0.0,"ViennaDirectFlag":false,"CurrencyCode":"HKD:1","MinDays":0,"InvoiceMode":null}],"MroomId":"00818-0000002","MroomName":"One Bedroom Deluxe","MroomNameEn":"One Bedroom Deluxe","YMroomName":null,"Adults":1,"Children":0,"ChildAges":"","MaxPerson":1,"ProductSource":"SunSeries","CurrentAlloment":10,"ProductELIntel":null}] ， Time:2018/11/16 14:41:56 
发生时间：2018/11/16 14:41:56
---------
日志内容：Studio：SunSeries(平台请求)获取报价 ,请求数据 :GetRoomTypePrice{"hotelId":"suns00818","arrivalDate":"2018-11-29","departureDate":"2018-12-01","IntOccupancyInfo":{"adults":1,"childAges":null,"children":0},"rateplanId":"00818-0000002-7d68a7443b6da56a0751b544a03eb4ed","roomNum":2} , 返回数据：[{"AddValue":null,"IsHasMobile":false,"RoomName":"One Bedroom Deluxe","AddBed":null,"RoomId":"00818-0000002_00818-0000002-7d68a7443b6da56a0751b544a03eb4ed","RoomTypeId":"00818-0000002","BedType":"单人床","Net":null,"Area":null,"RoomFloor":null,"Desc":null,"RoomPrice":968,"Note":null,"Detail":null,"ExtraMoney":0,"AdWay":null,"XRoomId":"00818-0000002_00818-0000002-7d68a7443b6da56a0751b544a03eb4ed","XRoomName":"One Bedroom Deluxe","RatePlan":[{"BedType":"单人床","AddBed":"-1","Currency":"RMB","RoomInventoryStatusCode":"1","RoomId":"00818-0000002_00818-0000002-7d68a7443b6da56a0751b544a03eb4ed","RoomName":"One Bedroom Deluxe(无早)[内宾]","CurrentAlloment":10,"CustomerType":null,"MinAmount":0,"RoomBonus":0,"RoomTypeId":"backend_hotel::bess-suns00818-0000002","RatePlanId":"00818-0000002-7d68a7443b6da56a0751b544a03eb4ed","RatePlanName":"One Bedroom Deluxe(无早)","Net":null,"RoomTypeImg":null,"AveragePrice":"968.00","Breakfast":"0份早餐","Guarantee":null,"AddValue":null,"Promotion":null,"XRatePlanName":"One Bedroom Deluxe(无早)","PayMent":"y","Desc":null,"Available":true,"VouchNode":null,"Vouch":null,"Rates":[{"AmountBeforeTax":0.0,"Bonus":0,"DateStr":"11-29","WeekStr":"u5468u56db","Available":true,"InstantCode":false,"CostPrice":0.0,"AddBedRate":0.0,"Commission":0.0,"CurrencyCode":null,"Date":"2018-11-29T00:00:00","HotelID":"968.00","InvStatusCode":null,"MemberRate":968.00,"MyHotelID":null,"RatePlanID":null,"RetailRate":968.00,"RoomTypeID":null},{"AmountBeforeTax":0.0,"Bonus":0,"DateStr":"12-01","WeekStr":"u5468u516d","Available":true,"InstantCode":false,"CostPrice":0.0,"AddBedRate":0.0,"Commission":0.0,"CurrencyCode":null,"Date":"2018-12-01T00:00:00","HotelID":"968.00","InvStatusCode":null,"MemberRate":968.00,"MyHotelID":null,"RatePlanID":null,"RetailRate":968.00,"RoomTypeID":null}],"ExtraBonus":0,"SMoney":1936.0,"InstantCode":false,"CnPrice":0.0,"RMBPrice":0.0,"ViennaDirectFlag":false,"CurrencyCode":"HKD:1","MinDays":0,"InvoiceMode":null}],"MroomId":"00818-0000002","MroomName":"One Bedroom Deluxe","MroomNameEn":"One Bedroom Deluxe","YMroomName":null,"Adults":1,"Children":0,"ChildAges":"","MaxPerson":1,"ProductSource":"SunSeries","CurrentAlloment":10,"ProductELIntel":null}] ， Time:2018/11/16 14:48:57 
发生时间：2018/11/16 14:48:57
---------
日志内容：Studio：SunSeries(平台请求)获取报价 ,请求数据 :GetRoomTypePrice{"hotelId":"suns00818","arrivalDate":"2018-11-29","departureDate":"2018-12-01","IntOccupancyInfo":{"adults":1,"childAges":null,"children":0},"rateplanId":"00818-0000002-7d68a7443b6da56a0751b544a03eb4ed","roomNum":3} , 返回数据：[{"AddValue":null,"IsHasMobile":false,"RoomName":"One Bedroom Deluxe","AddBed":null,"RoomId":"00818-0000002_00818-0000002-7d68a7443b6da56a0751b544a03eb4ed","RoomTypeId":"00818-0000002","BedType":"单人床","Net":null,"Area":null,"RoomFloor":null,"Desc":null,"RoomPrice":1452,"Note":null,"Detail":null,"ExtraMoney":0,"AdWay":null,"XRoomId":"00818-0000002_00818-0000002-7d68a7443b6da56a0751b544a03eb4ed","XRoomName":"One Bedroom Deluxe","RatePlan":[{"BedType":"单人床","AddBed":"-1","Currency":"RMB","RoomInventoryStatusCode":"1","RoomId":"00818-0000002_00818-0000002-7d68a7443b6da56a0751b544a03eb4ed","RoomName":"One Bedroom Deluxe(无早)[内宾]","CurrentAlloment":10,"CustomerType":null,"MinAmount":0,"RoomBonus":0,"RoomTypeId":"backend_hotel::bess-suns00818-0000002","RatePlanId":"00818-0000002-7d68a7443b6da56a0751b544a03eb4ed","RatePlanName":"One Bedroom Deluxe(无早)","Net":null,"RoomTypeImg":null,"AveragePrice":"1452.00","Breakfast":"0份早餐","Guarantee":null,"AddValue":null,"Promotion":null,"XRatePlanName":"One Bedroom Deluxe(无早)","PayMent":"y","Desc":null,"Available":true,"VouchNode":null,"Vouch":null,"Rates":[{"AmountBeforeTax":0.0,"Bonus":0,"DateStr":"11-29","WeekStr":"u5468u56db","Available":true,"InstantCode":false,"CostPrice":0.0,"AddBedRate":0.0,"Commission":0.0,"CurrencyCode":null,"Date":"2018-11-29T00:00:00","HotelID":"1452.00","InvStatusCode":null,"MemberRate":1452.00,"MyHotelID":null,"RatePlanID":null,"RetailRate":1452.00,"RoomTypeID":null},{"AmountBeforeTax":0.0,"Bonus":0,"DateStr":"12-01","WeekStr":"u5468u516d","Available":true,"InstantCode":false,"CostPrice":0.0,"AddBedRate":0.0,"Commission":0.0,"CurrencyCode":null,"Date":"2018-12-01T00:00:00","HotelID":"1452.00","InvStatusCode":null,"MemberRate":1452.00,"MyHotelID":null,"RatePlanID":null,"RetailRate":1452.00,"RoomTypeID":null}],"ExtraBonus":0,"SMoney":2904.0,"InstantCode":false,"CnPrice":0.0,"RMBPrice":0.0,"ViennaDirectFlag":false,"CurrencyCode":"HKD:1","MinDays":0,"InvoiceMode":null}],"MroomId":"00818-0000002","MroomName":"One Bedroom Deluxe","MroomNameEn":"One Bedroom Deluxe","YMroomName":null,"Adults":1,"Children":0,"ChildAges":"","MaxPerson":1,"ProductSource":"SunSeries","CurrentAlloment":10,"ProductELIntel":null}] ， Time:2018/11/16 14:49:11 
发生时间：2018/11/16 14:49:11
