---------
日志内容：Studio：SunSeries(平台请求)创建订单,请求数据 :Create_Order{ "inOrderNum": 123457, "hotelId": "suns00818", "roomTypeId": null, "ratePlanId": "00818-0000002-7d68a7443b6da56a0751b544a03eb4ed", "arrivalDate": "2018-12-26", "departureDate": "2018-12-27", "roomNum": 2, "BookingInfo": { "adults":4,"childAge":null,"name": ["LI/MING", "Zhang/San", "Wang/Wu", "Chen/Liu" ] },"TotalMoney":1000 } , 返回数据：{"code":"99","orderNum":null,"orderTotal":0.0,"Status":"预订失败","mes":"预订失败,该订单号已存在"} ， Time:2018/11/26 9:12:38 
发生时间：2018/11/26 9:12:38
---------
日志内容：Studio：SunSeries(平台请求)创建订单,请求数据 :Create_Order{ "inOrderNum": 123459, "hotelId": "suns00818", "roomTypeId": null, "ratePlanId": "00818-0000002-7d68a7443b6da56a0751b544a03eb4ed", "arrivalDate": "2018-12-26", "departureDate": "2018-12-27", "roomNum": 2, "BookingInfo": { "adults":4,"childAge":null,"name": ["LI/MING", "Zhang/San", "Wang/Wu", "Chen/Liu" ] },"TotalMoney":1000 } , 返回数据：{"code":"99","orderNum":null,"orderTotal":0.0,"orderOriginalPrice":null,"Status":"预订失败","Reservation":null,"mes":"预订失败，System.NullReferenceException: 未将对象引用设置到对象的实例。\r\n   在 XiWan.Data.SunSeries.SunSeriesDAL.Create_Order(String HotelID, String RateplanId, List`1 customers, String inOrderNum, String beginTime, String endTime, Int32 roomNum, Decimal TotalMoney) 位置 d:\\work\\XiWan\\Data\\SunSeries\\SunSeriesDAL.cs:行号 1554"} ， Time:2018/11/26 9:12:51 
发生时间：2018/11/26 9:12:51
---------
日志内容：Studio：SunSeries(平台请求)创建订单,请求数据 :Create_Order{ "inOrderNum": 123459, "hotelId": "suns00818", "roomTypeId": null, "ratePlanId": "00818-0000002-7d68a7443b6da56a0751b544a03eb4ed", "arrivalDate": "2018-12-26", "departureDate": "2018-12-27", "roomNum": 2, "BookingInfo": { "adults":4,"childAge":null,"name": ["LI/MING", "Zhang/San", "Wang/Wu", "Chen/Liu" ] },"TotalMoney":1000 } , 返回数据：{"code":"99","orderNum":null,"orderTotal":0.0,"orderOriginalPrice":null,"Status":"预订失败","Reservation":null,"mes":"预订失败，System.NullReferenceException: 未将对象引用设置到对象的实例。\r\n   在 XiWan.Data.SunSeries.SunSeriesDAL.Create_Order(String HotelID, String RateplanId, List`1 customers, String inOrderNum, String beginTime, String endTime, Int32 roomNum, Decimal TotalMoney) 位置 d:\\work\\XiWan\\Data\\SunSeries\\SunSeriesDAL.cs:行号 1554"} ， Time:2018/11/26 9:15:22 
发生时间：2018/11/26 9:15:22
---------
日志内容：Studio：SunSeries(平台请求)创建订单,请求数据 :Create_Order{ "inOrderNum": 123459, "hotelId": "suns00818", "roomTypeId": null, "ratePlanId": "00818-0000002-7d68a7443b6da56a0751b544a03eb4ed", "arrivalDate": "2018-12-26", "departureDate": "2018-12-27", "roomNum": 2, "BookingInfo": { "adults":4,"childAge":null,"name": ["LI/MING", "Zhang/San", "Wang/Wu", "Chen/Liu" ] },"TotalMoney":1000 } , 返回数据：{"code":"99","orderNum":null,"orderTotal":0.0,"orderOriginalPrice":null,"Status":"预订失败","Reservation":null,"mes":"预订失败，System.NullReferenceException: 未将对象引用设置到对象的实例。\r\n   在 XiWan.Data.SunSeries.SunSeriesDAL.Create_Order(String HotelID, String RateplanId, List`1 customers, String inOrderNum, String beginTime, String endTime, Int32 roomNum, Decimal TotalMoney) 位置 d:\\work\\XiWan\\Data\\SunSeries\\SunSeriesDAL.cs:行号 1554"} ， Time:2018/11/26 9:15:51 
发生时间：2018/11/26 9:15:51
---------
日志内容：Studio：SunSeries(平台请求)创建订单,请求数据 :Create_OrderTo{ "inOrderNum": 123459, "hotelId": "suns00818", "roomTypeId": null, "ratePlanId": "00818-0000002-7d68a7443b6da56a0751b544a03eb4ed", "arrivalDate": "2018-12-26", "departureDate": "2018-12-27", "roomNum": 2, "BookingInfo": { "adults":4,"childAge":null,"name": ["LI/MING", "Zhang/San", "Wang/Wu", "Chen/Liu" ] },"TotalMoney":1000 } , 返回数据：{"code":"99","orderNum":null,"orderTotal":0.0,"Status":"预订失败","mes":"预订失败,该订单号已存在"} ， Time:2018/11/26 9:16:05 
发生时间：2018/11/26 9:16:05
---------
日志内容：Studio：SunSeries(平台请求)创建订单,请求数据 :Create_OrderTo{ "inOrderNum": 123459, "hotelId": "suns00818", "roomTypeId": null, "ratePlanId": "00818-0000002-7d68a7443b6da56a0751b544a03eb4ed", "arrivalDate": "2018-12-26", "departureDate": "2018-12-27", "roomNum": 2, "BookingInfo": { "adults":4,"childAge":null,"name": ["LI/MING", "Zhang/San", "Wang/Wu", "Chen/Liu" ] },"TotalMoney":1000 } , 返回数据：{"code":"99","orderNum":null,"orderTotal":0.0,"orderOriginalPrice":null,"Status":"预订失败","Reservation":null,"mes":"预订失败"} ， Time:2018/11/26 9:27:26 
发生时间：2018/11/26 9:27:26
---------
日志内容：Studio：SunSeries(平台请求)创建订单,请求数据 :Create_OrderTo{ "inOrderNum": 123460, "hotelId": "suns00818", "roomTypeId": null, "ratePlanId": "00818-0000002-7d68a7443b6da56a0751b544a03eb4ed", "arrivalDate": "2018-12-26", "departureDate": "2018-12-27", "roomNum": 1, "BookingInfo": { "adults":2,"childAge":null,"name": ["LI/MING", "Zhang/San", "Wang/Wu", "Chen/Liu" ] },"TotalMoney":1000 } , 返回数据：{"code":"00","orderNum":"SS142175","orderTotal":495.00,"orderOriginalPrice":"HK$495.00","Status":"确认","Reservation":null,"mes":"预订成功"} ， Time:2018/11/26 9:35:02 
发生时间：2018/11/26 9:35:02
---------
日志内容：Studio：SunSeries(平台请求)创建订单,请求数据 :Create_OrderTo{ "inOrderNum": 123457, "hotelId": "suns00818", "roomTypeId": null, "ratePlanId": "00818-0000002-7d68a7443b6da56a0751b544a03eb4ed", "arrivalDate": "2018-12-26", "departureDate": "2018-12-27", "roomNum": 2, "BookingInfo": { "adults":4,"childAge":null,"name": ["LI/MING", "Zhang/San", "Wang/Wu", "Chen/Liu" ] },"TotalMoney":1000 } , 返回数据：{"code":"99","orderNum":null,"orderTotal":0.0,"Status":"预订失败","mes":"预订失败,该订单号已存在"} ， Time:2018/11/26 9:40:13 
发生时间：2018/11/26 9:40:13
---------
日志内容：Studio：SunSeries(平台请求)创建订单,请求数据 :Create_OrderTo{ "inOrderNum": 123461, "hotelId": "suns00818", "roomTypeId": null, "ratePlanId": "00818-0000002-7d68a7443b6da56a0751b544a03eb4ed", "arrivalDate": "2018-12-26", "departureDate": "2018-12-27", "roomNum": 2, "BookingInfo": { "adults":4,"childAge":null,"name": ["LI/MING", "Zhang/San", "Wang/Wu", "Chen/Liu" ] },"TotalMoney":1000 } , 返回数据：{"code":"00","orderNum":"SS624484","orderTotal":990.00,"orderOriginalPrice":"HK$990.00","Status":"确认","Reservation":null,"mes":"预订成功"} ， Time:2018/11/26 9:45:02 
发生时间：2018/11/26 9:45:02
